simulation/modelsim/msim_transcript
# Reading C:/intelFPGA_lite/18.1/modelsim_ase/tcl/vsim/pref.tcl
# do computer_top_run_msim_rtl_verilog.do
# if {[file exists rtl_work]} {
# 	vdel -lib rtl_work -all
# }
# vlib rtl_work
# vmap work rtl_work
# Model Technology ModelSim - Intel FPGA Edition vmap 10.5b Lib Mapping Utility 2016.10 Oct  5 2016
# vmap work rtl_work 
# Copying C:/intelFPGA_lite/18.1/modelsim_ase/win32aloem/../modelsim.ini to modelsim.ini
# Modifying modelsim.ini
# 
# vlog -vlog01compat -work work +incdir+C:/Users/Ayudapls/Documents/GitHub/proyecto-final-tallerDD {C:/Users/Ayudapls/Documents/GitHub/proyecto-final-tallerDD/ram.v}
# Model Technology ModelSim - Intel FPGA Edition vlog 10.5b Compiler 2016.10 Oct  5 2016
# Start time: 22:02:47 on Jun 22,2025
# vlog -reportprogress 300 -vlog01compat -work work "+incdir+C:/Users/Ayudapls/Documents/GitHub/proyecto-final-tallerDD" C:/Users/Ayudapls/Documents/GitHub/proyecto-final-tallerDD/ram.v 
# -- Compiling module ram
# 
# Top level modules:
# 	ram
# End time: 22:02:47 on Jun 22,2025, Elapsed time: 0:00:00
# Errors: 0, Warnings: 0
# vlog -sv -work work +incdir+C:/Users/Ayudapls/Documents/GitHub/proyecto-final-tallerDD {C:/Users/Ayudapls/Documents/GitHub/proyecto-final-tallerDD/arm.sv}
# Model Technology ModelSim - Intel FPGA Edition vlog 10.5b Compiler 2016.10 Oct  5 2016
# Start time: 22:02:47 on Jun 22,2025
# vlog -reportprogress 300 -sv -work work "+incdir+C:/Users/Ayudapls/Documents/GitHub/proyecto-final-tallerDD" C:/Users/Ayudapls/Documents/GitHub/proyecto-final-tallerDD/arm.sv 
# -- Compiling module arm
# 
# Top level modules:
# 	arm
# End time: 22:02:47 on Jun 22,2025, Elapsed time: 0:00:00
# Errors: 0, Warnings: 0
# vlog -sv -work work +incdir+C:/Users/Ayudapls/Documents/GitHub/proyecto-final-tallerDD {C:/Users/Ayudapls/Documents/GitHub/proyecto-final-tallerDD/computer_top.sv}
# Model Technology ModelSim - Intel FPGA Edition vlog 10.5b Compiler 2016.10 Oct  5 2016
# Start time: 22:02:47 on Jun 22,2025
# vlog -reportprogress 300 -sv -work work "+incdir+C:/Users/Ayudapls/Documents/GitHub/proyecto-final-tallerDD" C:/Users/Ayudapls/Documents/GitHub/proyecto-final-tallerDD/computer_top.sv 
# -- Compiling module computer_top
# 
# Top level modules:
# 	computer_top
# End time: 22:02:47 on Jun 22,2025, Elapsed time: 0:00:00
# Errors: 0, Warnings: 0
# vlog -sv -work work +incdir+C:/Users/Ayudapls/Documents/GitHub/proyecto-final-tallerDD {C:/Users/Ayudapls/Documents/GitHub/proyecto-final-tallerDD/controller.sv}
# Model Technology ModelSim - Intel FPGA Edition vlog 10.5b Compiler 2016.10 Oct  5 2016
# Start time: 22:02:47 on Jun 22,2025
# vlog -reportprogress 300 -sv -work work "+incdir+C:/Users/Ayudapls/Documents/GitHub/proyecto-final-tallerDD" C:/Users/Ayudapls/Documents/GitHub/proyecto-final-tallerDD/controller.sv 
# -- Compiling module controller
# 
# Top level modules:
# 	controller
# End time: 22:02:47 on Jun 22,2025, Elapsed time: 0:00:00
# Errors: 0, Warnings: 0
# vlog -sv -work work +incdir+C:/Users/Ayudapls/Documents/GitHub/proyecto-final-tallerDD {C:/Users/Ayudapls/Documents/GitHub/proyecto-final-tallerDD/decoder.sv}
# Model Technology ModelSim - Intel FPGA Edition vlog 10.5b Compiler 2016.10 Oct  5 2016
# Start time: 22:02:47 on Jun 22,2025
# vlog -reportprogress 300 -sv -work work "+incdir+C:/Users/Ayudapls/Documents/GitHub/proyecto-final-tallerDD" C:/Users/Ayudapls/Documents/GitHub/proyecto-final-tallerDD/decoder.sv 
# -- Compiling module decoder
# 
# Top level modules:
# 	decoder
# End time: 22:02:47 on Jun 22,2025, Elapsed time: 0:00:00
# Errors: 0, Warnings: 0
# vlog -sv -work work +incdir+C:/Users/Ayudapls/Documents/GitHub/proyecto-final-tallerDD {C:/Users/Ayudapls/Documents/GitHub/proyecto-final-tallerDD/condlogic.sv}
# Model Technology ModelSim - Intel FPGA Edition vlog 10.5b Compiler 2016.10 Oct  5 2016
# Start time: 22:02:47 on Jun 22,2025
# vlog -reportprogress 300 -sv -work work "+incdir+C:/Users/Ayudapls/Documents/GitHub/proyecto-final-tallerDD" C:/Users/Ayudapls/Documents/GitHub/proyecto-final-tallerDD/condlogic.sv 
# -- Compiling module condlogic
# 
# Top level modules:
# 	condlogic
# End time: 22:02:47 on Jun 22,2025, Elapsed time: 0:00:00
# Errors: 0, Warnings: 0
# vlog -sv -work work +incdir+C:/Users/Ayudapls/Documents/GitHub/proyecto-final-tallerDD {C:/Users/Ayudapls/Documents/GitHub/proyecto-final-tallerDD/datapath.sv}
# Model Technology ModelSim - Intel FPGA Edition vlog 10.5b Compiler 2016.10 Oct  5 2016
# Start time: 22:02:47 on Jun 22,2025
# vlog -reportprogress 300 -sv -work work "+incdir+C:/Users/Ayudapls/Documents/GitHub/proyecto-final-tallerDD" C:/Users/Ayudapls/Documents/GitHub/proyecto-final-tallerDD/datapath.sv 
# -- Compiling module datapath
# 
# Top level modules:
# 	datapath
# End time: 22:02:47 on Jun 22,2025, Elapsed time: 0:00:00
# Errors: 0, Warnings: 0
# vlog -sv -work work +incdir+C:/Users/Ayudapls/Documents/GitHub/proyecto-final-tallerDD {C:/Users/Ayudapls/Documents/GitHub/proyecto-final-tallerDD/regfile.sv}
# Model Technology ModelSim - Intel FPGA Edition vlog 10.5b Compiler 2016.10 Oct  5 2016
# Start time: 22:02:47 on Jun 22,2025
# vlog -reportprogress 300 -sv -work work "+incdir+C:/Users/Ayudapls/Documents/GitHub/proyecto-final-tallerDD" C:/Users/Ayudapls/Documents/GitHub/proyecto-final-tallerDD/regfile.sv 
# -- Compiling module regfile
# 
# Top level modules:
# 	regfile
# End time: 22:02:47 on Jun 22,2025, Elapsed time: 0:00:00
# Errors: 0, Warnings: 0
# vlog -sv -work work +incdir+C:/Users/Ayudapls/Documents/GitHub/proyecto-final-tallerDD {C:/Users/Ayudapls/Documents/GitHub/proyecto-final-tallerDD/adder.sv}
# Model Technology ModelSim - Intel FPGA Edition vlog 10.5b Compiler 2016.10 Oct  5 2016
# Start time: 22:02:47 on Jun 22,2025
# vlog -reportprogress 300 -sv -work work "+incdir+C:/Users/Ayudapls/Documents/GitHub/proyecto-final-tallerDD" C:/Users/Ayudapls/Documents/GitHub/proyecto-final-tallerDD/adder.sv 
# -- Compiling module adder
# 
# Top level modules:
# 	adder
# End time: 22:02:47 on Jun 22,2025, Elapsed time: 0:00:00
# Errors: 0, Warnings: 0
# vlog -sv -work work +incdir+C:/Users/Ayudapls/Documents/GitHub/proyecto-final-tallerDD {C:/Users/Ayudapls/Documents/GitHub/proyecto-final-tallerDD/extend.sv}
# Model Technology ModelSim - Intel FPGA Edition vlog 10.5b Compiler 2016.10 Oct  5 2016
# Start time: 22:02:47 on Jun 22,2025
# vlog -reportprogress 300 -sv -work work "+incdir+C:/Users/Ayudapls/Documents/GitHub/proyecto-final-tallerDD" C:/Users/Ayudapls/Documents/GitHub/proyecto-final-tallerDD/extend.sv 
# -- Compiling module extend
# 
# Top level modules:
# 	extend
# End time: 22:02:47 on Jun 22,2025, Elapsed time: 0:00:00
# Errors: 0, Warnings: 0
# vlog -sv -work work +incdir+C:/Users/Ayudapls/Documents/GitHub/proyecto-final-tallerDD {C:/Users/Ayudapls/Documents/GitHub/proyecto-final-tallerDD/flopr.sv}
# Model Technology ModelSim - Intel FPGA Edition vlog 10.5b Compiler 2016.10 Oct  5 2016
# Start time: 22:02:48 on Jun 22,2025
# vlog -reportprogress 300 -sv -work work "+incdir+C:/Users/Ayudapls/Documents/GitHub/proyecto-final-tallerDD" C:/Users/Ayudapls/Documents/GitHub/proyecto-final-tallerDD/flopr.sv 
# -- Compiling module flopr
# 
# Top level modules:
# 	flopr
# End time: 22:02:48 on Jun 22,2025, Elapsed time: 0:00:00
# Errors: 0, Warnings: 0
# vlog -sv -work work +incdir+C:/Users/Ayudapls/Documents/GitHub/proyecto-final-tallerDD {C:/Users/Ayudapls/Documents/GitHub/proyecto-final-tallerDD/flopenr.sv}
# Model Technology ModelSim - Intel FPGA Edition vlog 10.5b Compiler 2016.10 Oct  5 2016
# Start time: 22:02:48 on Jun 22,2025
# vlog -reportprogress 300 -sv -work work "+incdir+C:/Users/Ayudapls/Documents/GitHub/proyecto-final-tallerDD" C:/Users/Ayudapls/Documents/GitHub/proyecto-final-tallerDD/flopenr.sv 
# -- Compiling module flopenr
# 
# Top level modules:
# 	flopenr
# End time: 22:02:48 on Jun 22,2025, Elapsed time: 0:00:00
# Errors: 0, Warnings: 0
# vlog -sv -work work +incdir+C:/Users/Ayudapls/Documents/GitHub/proyecto-final-tallerDD {C:/Users/Ayudapls/Documents/GitHub/proyecto-final-tallerDD/mux2.sv}
# Model Technology ModelSim - Intel FPGA Edition vlog 10.5b Compiler 2016.10 Oct  5 2016
# Start time: 22:02:48 on Jun 22,2025
# vlog -reportprogress 300 -sv -work work "+incdir+C:/Users/Ayudapls/Documents/GitHub/proyecto-final-tallerDD" C:/Users/Ayudapls/Documents/GitHub/proyecto-final-tallerDD/mux2.sv 
# -- Compiling module mux2
# 
# Top level modules:
# 	mux2
# End time: 22:02:48 on Jun 22,2025, Elapsed time: 0:00:00
# Errors: 0, Warnings: 0
# vlog -sv -work work +incdir+C:/Users/Ayudapls/Documents/GitHub/proyecto-final-tallerDD {C:/Users/Ayudapls/Documents/GitHub/proyecto-final-tallerDD/alu.sv}
# Model Technology ModelSim - Intel FPGA Edition vlog 10.5b Compiler 2016.10 Oct  5 2016
# Start time: 22:02:48 on Jun 22,2025
# vlog -reportprogress 300 -sv -work work "+incdir+C:/Users/Ayudapls/Documents/GitHub/proyecto-final-tallerDD" C:/Users/Ayudapls/Documents/GitHub/proyecto-final-tallerDD/alu.sv 
# -- Compiling module alu
# 
# Top level modules:
# 	alu
# End time: 22:02:48 on Jun 22,2025, Elapsed time: 0:00:00
# Errors: 0, Warnings: 0
# vlog -sv -work work +incdir+C:/Users/Ayudapls/Documents/GitHub/proyecto-final-tallerDD {C:/Users/Ayudapls/Documents/GitHub/proyecto-final-tallerDD/shift.sv}
# Model Technology ModelSim - Intel FPGA Edition vlog 10.5b Compiler 2016.10 Oct  5 2016
# Start time: 22:02:48 on Jun 22,2025
# vlog -reportprogress 300 -sv -work work "+incdir+C:/Users/Ayudapls/Documents/GitHub/proyecto-final-tallerDD" C:/Users/Ayudapls/Documents/GitHub/proyecto-final-tallerDD/shift.sv 
# -- Compiling module shift
# 
# Top level modules:
# 	shift
# End time: 22:02:48 on Jun 22,2025, Elapsed time: 0:00:00
# Errors: 0, Warnings: 0
# vlog -sv -work work +incdir+C:/Users/Ayudapls/Documents/GitHub/proyecto-final-tallerDD {C:/Users/Ayudapls/Documents/GitHub/proyecto-final-tallerDD/condcheck.sv}
# Model Technology ModelSim - Intel FPGA Edition vlog 10.5b Compiler 2016.10 Oct  5 2016
# Start time: 22:02:48 on Jun 22,2025
# vlog -reportprogress 300 -sv -work work "+incdir+C:/Users/Ayudapls/Documents/GitHub/proyecto-final-tallerDD" C:/Users/Ayudapls/Documents/GitHub/proyecto-final-tallerDD/condcheck.sv 
# -- Compiling module condcheck
# 
# Top level modules:
# 	condcheck
# End time: 22:02:48 on Jun 22,2025, Elapsed time: 0:00:00
# Errors: 0, Warnings: 0
# vlog -sv -work work +incdir+C:/Users/Ayudapls/Documents/GitHub/proyecto-final-tallerDD {C:/Users/Ayudapls/Documents/GitHub/proyecto-final-tallerDD/adderalu.sv}
# Model Technology ModelSim - Intel FPGA Edition vlog 10.5b Compiler 2016.10 Oct  5 2016
# Start time: 22:02:48 on Jun 22,2025
# vlog -reportprogress 300 -sv -work work "+incdir+C:/Users/Ayudapls/Documents/GitHub/proyecto-final-tallerDD" C:/Users/Ayudapls/Documents/GitHub/proyecto-final-tallerDD/adderalu.sv 
# -- Compiling module adderalu
# 
# Top level modules:
# 	adderalu
# End time: 22:02:48 on Jun 22,2025, Elapsed time: 0:00:00
# Errors: 0, Warnings: 0
# vlog -sv -work work +incdir+C:/Users/Ayudapls/Documents/GitHub/proyecto-final-tallerDD {C:/Users/Ayudapls/Documents/GitHub/proyecto-final-tallerDD/mulalu.sv}
# Model Technology ModelSim - Intel FPGA Edition vlog 10.5b Compiler 2016.10 Oct  5 2016
# Start time: 22:02:48 on Jun 22,2025
# vlog -reportprogress 300 -sv -work work "+incdir+C:/Users/Ayudapls/Documents/GitHub/proyecto-final-tallerDD" C:/Users/Ayudapls/Documents/GitHub/proyecto-final-tallerDD/mulalu.sv 
# -- Compiling module mulalu
# 
# Top level modules:
# 	mulalu
# End time: 22:02:48 on Jun 22,2025, Elapsed time: 0:00:00
# Errors: 0, Warnings: 0
# vlog -sv -work work +incdir+C:/Users/Ayudapls/Documents/GitHub/proyecto-final-tallerDD {C:/Users/Ayudapls/Documents/GitHub/proyecto-final-tallerDD/dmem.sv}
# Model Technology ModelSim - Intel FPGA Edition vlog 10.5b Compiler 2016.10 Oct  5 2016
# Start time: 22:02:48 on Jun 22,2025
# vlog -reportprogress 300 -sv -work work "+incdir+C:/Users/Ayudapls/Documents/GitHub/proyecto-final-tallerDD" C:/Users/Ayudapls/Documents/GitHub/proyecto-final-tallerDD/dmem.sv 
# -- Compiling module dmem
# 
# Top level modules:
# 	dmem
# End time: 22:02:48 on Jun 22,2025, Elapsed time: 0:00:00
# Errors: 0, Warnings: 0
# vlog -sv -work work +incdir+C:/Users/Ayudapls/Documents/GitHub/proyecto-final-tallerDD {C:/Users/Ayudapls/Documents/GitHub/proyecto-final-tallerDD/Decoder_type.sv}
# Model Technology ModelSim - Intel FPGA Edition vlog 10.5b Compiler 2016.10 Oct  5 2016
# Start time: 22:02:48 on Jun 22,2025
# vlog -reportprogress 300 -sv -work work "+incdir+C:/Users/Ayudapls/Documents/GitHub/proyecto-final-tallerDD" C:/Users/Ayudapls/Documents/GitHub/proyecto-final-tallerDD/Decoder_type.sv 
# -- Compiling module Decoder_type
# 
# Top level modules:
# 	Decoder_type
# End time: 22:02:48 on Jun 22,2025, Elapsed time: 0:00:00
# Errors: 0, Warnings: 0
# vlog -sv -work work +incdir+C:/Users/Ayudapls/Documents/GitHub/proyecto-final-tallerDD {C:/Users/Ayudapls/Documents/GitHub/proyecto-final-tallerDD/Decoder_7seg.sv}
# Model Technology ModelSim - Intel FPGA Edition vlog 10.5b Compiler 2016.10 Oct  5 2016
# Start time: 22:02:48 on Jun 22,2025
# vlog -reportprogress 300 -sv -work work "+incdir+C:/Users/Ayudapls/Documents/GitHub/proyecto-final-tallerDD" C:/Users/Ayudapls/Documents/GitHub/proyecto-final-tallerDD/Decoder_7seg.sv 
# -- Compiling module Decoder_7seg
# 
# Top level modules:
# 	Decoder_7seg
# End time: 22:02:48 on Jun 22,2025, Elapsed time: 0:00:00
# Errors: 0, Warnings: 0
# vlog -sv -work work +incdir+C:/Users/Ayudapls/Documents/GitHub/proyecto-final-tallerDD {C:/Users/Ayudapls/Documents/GitHub/proyecto-final-tallerDD/debouncer.sv}
# Model Technology ModelSim - Intel FPGA Edition vlog 10.5b Compiler 2016.10 Oct  5 2016
# Start time: 22:02:48 on Jun 22,2025
# vlog -reportprogress 300 -sv -work work "+incdir+C:/Users/Ayudapls/Documents/GitHub/proyecto-final-tallerDD" C:/Users/Ayudapls/Documents/GitHub/proyecto-final-tallerDD/debouncer.sv 
# -- Compiling module debouncer
# 
# Top level modules:
# 	debouncer
# End time: 22:02:48 on Jun 22,2025, Elapsed time: 0:00:00
# Errors: 0, Warnings: 0
# vlog -sv -work work +incdir+C:/Users/Ayudapls/Documents/GitHub/proyecto-final-tallerDD {C:/Users/Ayudapls/Documents/GitHub/proyecto-final-tallerDD/imem.sv}
# Model Technology ModelSim - Intel FPGA Edition vlog 10.5b Compiler 2016.10 Oct  5 2016
# Start time: 22:02:49 on Jun 22,2025
# vlog -reportprogress 300 -sv -work work "+incdir+C:/Users/Ayudapls/Documents/GitHub/proyecto-final-tallerDD" C:/Users/Ayudapls/Documents/GitHub/proyecto-final-tallerDD/imem.sv 
# -- Compiling module imem
# 
# Top level modules:
# 	imem
# End time: 22:02:49 on Jun 22,2025, Elapsed time: 0:00:00
# Errors: 0, Warnings: 0
# 
# vlog -sv -work work +incdir+C:/Users/Ayudapls/Documents/GitHub/proyecto-final-tallerDD {C:/Users/Ayudapls/Documents/GitHub/proyecto-final-tallerDD/tb_computer_top.sv}
# Model Technology ModelSim - Intel FPGA Edition vlog 10.5b Compiler 2016.10 Oct  5 2016
# Start time: 22:02:49 on Jun 22,2025
# vlog -reportprogress 300 -sv -work work "+incdir+C:/Users/Ayudapls/Documents/GitHub/proyecto-final-tallerDD" C:/Users/Ayudapls/Documents/GitHub/proyecto-final-tallerDD/tb_computer_top.sv 
# -- Compiling module tb_computer_top
# 
# Top level modules:
# 	tb_computer_top
# End time: 22:02:49 on Jun 22,2025, Elapsed time: 0:00:00
# Errors: 0, Warnings: 0
# 
# vsim -t 1ps -L altera_ver -L lpm_ver -L sgate_ver -L altera_mf_ver -L altera_lnsim_ver -L cyclonev_ver -L cyclonev_hssi_ver -L cyclonev_pcie_hip_ver -L rtl_work -L work -voptargs="+acc"  tb_computer_top
# vsim -t 1ps -L altera_ver -L lpm_ver -L sgate_ver -L altera_mf_ver -L altera_lnsim_ver -L cyclonev_ver -L cyclonev_hssi_ver -L cyclonev_pcie_hip_ver -L rtl_work -L work -voptargs=""+acc"" tb_computer_top 
# Start time: 22:02:49 on Jun 22,2025
# Loading sv_std.std
# Loading work.tb_computer_top
# Loading work.computer_top
# Loading work.debouncer
# Loading work.imem
# Loading work.arm
# Loading work.controller
# Loading work.decoder
# Loading work.condlogic
# Loading work.flopenr
# Loading work.condcheck
# Loading work.datapath
# Loading work.mux2
# Loading work.flopr
# Loading work.adder
# Loading work.regfile
# Loading work.extend
# Loading work.alu
# Loading work.adderalu
# Loading work.shift
# Loading work.mulalu
# Loading work.dmem
# Loading work.ram
# Loading altera_mf_ver.altsyncram
# Loading work.Decoder_type
# Loading work.Decoder_7seg
# Loading altera_mf_ver.altsyncram_body
# Loading altera_mf_ver.ALTERA_DEVICE_FAMILIES
# Loading altera_mf_ver.ALTERA_MF_MEMORY_INITIALIZATION
# ** Warning: (vsim-3017) C:/Users/Ayudapls/Documents/GitHub/proyecto-final-tallerDD/arm.sv(35): [TFMPC] - Too few port connections. Expected 16, found 15.
#    Time: 0 ps  Iteration: 0  Instance: /tb_computer_top/dut/arm/dp File: C:/Users/Ayudapls/Documents/GitHub/proyecto-final-tallerDD/datapath.sv
# ** Warning: (vsim-3722) C:/Users/Ayudapls/Documents/GitHub/proyecto-final-tallerDD/arm.sv(35): [TFMPC] - Missing connection for port 'debug_regs'.
# 
# add wave *
# view structure
# .main_pane.structure.interior.cs.body.struct
# view signals
# .main_pane.objects.interior.cs.body.tree
# run -all
# Time=0 PC=00000000 Instr=eb000004 op7seg=0111101 bx_check=100000 alu_op=8 s_bit=0 bx_match=0 button=1 pulse=0
# Time=200020000 PC=00000000 Instr=eb000004 op7seg=0111101 bx_check=100000 alu_op=8 s_bit=0 bx_match=0 button=0 pulse=0
# Time=200045000 PC=00000000 Instr=eb000004 op7seg=0111101 bx_check=100000 alu_op=8 s_bit=0 bx_match=0 button=0 pulse=1
# Time=200055000 PC=00000004 Instr=eb00001f op7seg=0111101 bx_check=100001 alu_op=8 s_bit=0 bx_match=0 button=0 pulse=0
# Time=220020000 PC=00000004 Instr=eb00001f op7seg=0111101 bx_check=100001 alu_op=8 s_bit=0 bx_match=0 button=1 pulse=0
# Time=420020000 PC=00000004 Instr=eb00001f op7seg=0111101 bx_check=100001 alu_op=8 s_bit=0 bx_match=0 button=0 pulse=0
# Time=420045000 PC=00000004 Instr=eb00001f op7seg=0111101 bx_check=100001 alu_op=8 s_bit=0 bx_match=0 button=0 pulse=1
# Time=420055000 PC=00000008 Instr=eb00002c op7seg=0111101 bx_check=100002 alu_op=8 s_bit=0 bx_match=0 button=0 pulse=0
# Time=440020000 PC=00000008 Instr=eb00002c op7seg=0111101 bx_check=100002 alu_op=8 s_bit=0 bx_match=0 button=1 pulse=0
# Time=640020000 PC=00000008 Instr=eb00002c op7seg=0111101 bx_check=100002 alu_op=8 s_bit=0 bx_match=0 button=0 pulse=0
# Time=640045000 PC=00000008 Instr=eb00002c op7seg=0111101 bx_check=100002 alu_op=8 s_bit=0 bx_match=0 button=0 pulse=1
# Time=640055000 PC=0000000c Instr=eb000046 op7seg=0111101 bx_check=100004 alu_op=8 s_bit=0 bx_match=0 button=0 pulse=0
# Time=660020000 PC=0000000c Instr=eb000046 op7seg=0111101 bx_check=100004 alu_op=8 s_bit=0 bx_match=0 button=1 pulse=0
# Time=860020000 PC=0000000c Instr=eb000046 op7seg=0111101 bx_check=100004 alu_op=8 s_bit=0 bx_match=0 button=0 pulse=0
# Time=860045000 PC=0000000c Instr=eb000046 op7seg=0111101 bx_check=100004 alu_op=8 s_bit=0 bx_match=0 button=0 pulse=1
# Time=860055000 PC=00000010 Instr=eb000070 op7seg=0111101 bx_check=100007 alu_op=8 s_bit=0 bx_match=0 button=0 pulse=0
# Time=880020000 PC=00000010 Instr=eb000070 op7seg=0111101 bx_check=100007 alu_op=8 s_bit=0 bx_match=0 button=1 pulse=0
# Time=1080020000 PC=00000010 Instr=eb000070 op7seg=0111101 bx_check=100007 alu_op=8 s_bit=0 bx_match=0 button=0 pulse=0
# Time=1080045000 PC=00000010 Instr=eb000070 op7seg=0111101 bx_check=100007 alu_op=8 s_bit=0 bx_match=0 button=0 pulse=1
# Time=1080055000 PC=00000014 Instr=eafffffa op7seg=0111101 bx_check=0fffff alu_op=7 s_bit=1 bx_match=0 button=0 pulse=0
# Time=1100020000 PC=00000014 Instr=eafffffa op7seg=0111101 bx_check=0fffff alu_op=7 s_bit=1 bx_match=0 button=1 pulse=0
# Time=1300020000 PC=00000014 Instr=eafffffa op7seg=0111101 bx_check=0fffff alu_op=7 s_bit=1 bx_match=0 button=0 pulse=0
# Time=1300045000 PC=00000014 Instr=eafffffa op7seg=0111101 bx_check=0fffff alu_op=7 s_bit=1 bx_match=0 button=0 pulse=1
# Time=1300055000 PC=00000018 Instr=e3a00090 op7seg=1010110 bx_check=1a0009 alu_op=d s_bit=0 bx_match=0 button=0 pulse=0
# Time=1320020000 PC=00000018 Instr=e3a00090 op7seg=1010110 bx_check=1a0009 alu_op=d s_bit=0 bx_match=0 button=1 pulse=0
# Time=1520020000 PC=00000018 Instr=e3a00090 op7seg=1010110 bx_check=1a0009 alu_op=d s_bit=0 bx_match=0 button=0 pulse=0
# Time=1520045000 PC=00000018 Instr=e3a00090 op7seg=1010110 bx_check=1a0009 alu_op=d s_bit=0 bx_match=0 button=0 pulse=1
# Time=1520055000 PC=0000001c Instr=e3a010e8 op7seg=1010110 bx_check=1a010e alu_op=d s_bit=0 bx_match=0 button=0 pulse=0
# Time=1540020000 PC=0000001c Instr=e3a010e8 op7seg=1010110 bx_check=1a010e alu_op=d s_bit=0 bx_match=0 button=1 pulse=0
# Time=1740020000 PC=0000001c Instr=e3a010e8 op7seg=1010110 bx_check=1a010e alu_op=d s_bit=0 bx_match=0 button=0 pulse=0
# Time=1740045000 PC=0000001c Instr=e3a010e8 op7seg=1010110 bx_check=1a010e alu_op=d s_bit=0 bx_match=0 button=0 pulse=1
# Time=1740055000 PC=00000020 Instr=e3a02201 op7seg=1010110 bx_check=1a0220 alu_op=d s_bit=0 bx_match=0 button=0 pulse=0
# Time=1760020000 PC=00000020 Instr=e3a02201 op7seg=1010110 bx_check=1a0220 alu_op=d s_bit=0 bx_match=0 button=1 pulse=0
# Time=1960020000 PC=00000020 Instr=e3a02201 op7seg=1010110 bx_check=1a0220 alu_op=d s_bit=0 bx_match=0 button=0 pulse=0
# Time=1960045000 PC=00000020 Instr=e3a02201 op7seg=1010110 bx_check=1a0220 alu_op=d s_bit=0 bx_match=0 button=0 pulse=1
# Time=1960055000 PC=00000024 Instr=e5820000 op7seg=1011011 bx_check=182000 alu_op=c s_bit=0 bx_match=0 button=0 pulse=0
# Time=1980020000 PC=00000024 Instr=e5820000 op7seg=1011011 bx_check=182000 alu_op=c s_bit=0 bx_match=0 button=1 pulse=0
# Time=2180020000 PC=00000024 Instr=e5820000 op7seg=1011011 bx_check=182000 alu_op=c s_bit=0 bx_match=0 button=0 pulse=0
# Time=2180045000 PC=00000024 Instr=e5820000 op7seg=1011011 bx_check=182000 alu_op=c s_bit=0 bx_match=0 button=0 pulse=1
# Time=2180055000 PC=00000028 Instr=e3a02241 op7seg=1010110 bx_check=1a0224 alu_op=d s_bit=0 bx_match=0 button=0 pulse=0
# Time=2200020000 PC=00000028 Instr=e3a02241 op7seg=1010110 bx_check=1a0224 alu_op=d s_bit=0 bx_match=0 button=1 pulse=0
# Time=2400020000 PC=00000028 Instr=e3a02241 op7seg=1010110 bx_check=1a0224 alu_op=d s_bit=0 bx_match=0 button=0 pulse=0
# Time=2400045000 PC=00000028 Instr=e3a02241 op7seg=1010110 bx_check=1a0224 alu_op=d s_bit=0 bx_match=0 button=0 pulse=1
# Time=2400055000 PC=0000002c Instr=e5821000 op7seg=1011011 bx_check=182100 alu_op=c s_bit=0 bx_match=0 button=0 pulse=0
# Time=2420020000 PC=0000002c Instr=e5821000 op7seg=1011011 bx_check=182100 alu_op=c s_bit=0 bx_match=0 button=1 pulse=0
# Time=2620020000 PC=0000002c Instr=e5821000 op7seg=1011011 bx_check=182100 alu_op=c s_bit=0 bx_match=0 button=0 pulse=0
# Time=2620045000 PC=0000002c Instr=e5821000 op7seg=1011011 bx_check=182100 alu_op=c s_bit=0 bx_match=0 button=0 pulse=1
# Time=2620055000 PC=00000030 Instr=e3a00001 op7seg=1010110 bx_check=1a0000 alu_op=d s_bit=0 bx_match=0 button=0 pulse=0
# Time=2640020000 PC=00000030 Instr=e3a00001 op7seg=1010110 bx_check=1a0000 alu_op=d s_bit=0 bx_match=0 button=1 pulse=0
# Time=2840020000 PC=00000030 Instr=e3a00001 op7seg=1010110 bx_check=1a0000 alu_op=d s_bit=0 bx_match=0 button=0 pulse=0
# Time=2840045000 PC=00000030 Instr=e3a00001 op7seg=1010110 bx_check=1a0000 alu_op=d s_bit=0 bx_match=0 button=0 pulse=1
# Time=2840055000 PC=00000034 Instr=e59f21cc op7seg=0011100 bx_check=19f21c alu_op=c s_bit=1 bx_match=0 button=0 pulse=0
# Time=2860020000 PC=00000034 Instr=e59f21cc op7seg=0011100 bx_check=19f21c alu_op=c s_bit=1 bx_match=0 button=1 pulse=0
# Time=3060020000 PC=00000034 Instr=e59f21cc op7seg=0011100 bx_check=19f21c alu_op=c s_bit=1 bx_match=0 button=0 pulse=0
# Time=3060045000 PC=00000034 Instr=e59f21cc op7seg=0011100 bx_check=19f21c alu_op=c s_bit=1 bx_match=0 button=0 pulse=1
# Time=3060055000 PC=00000038 Instr=e5820000 op7seg=1011011 bx_check=182000 alu_op=c s_bit=0 bx_match=0 button=0 pulse=0
# Time=3080020000 PC=00000038 Instr=e5820000 op7seg=1011011 bx_check=182000 alu_op=c s_bit=0 bx_match=0 button=1 pulse=0
# Time=3280020000 PC=00000038 Instr=e5820000 op7seg=1011011 bx_check=182000 alu_op=c s_bit=0 bx_match=0 button=0 pulse=0
# Time=3280045000 PC=00000038 Instr=e5820000 op7seg=1011011 bx_check=182000 alu_op=c s_bit=0 bx_match=0 button=0 pulse=1
# Time=3280055000 PC=0000003c Instr=e3a0009c op7seg=1010110 bx_check=1a0009 alu_op=d s_bit=0 bx_match=0 button=0 pulse=0
# Time=3300020000 PC=0000003c Instr=e3a0009c op7seg=1010110 bx_check=1a0009 alu_op=d s_bit=0 bx_match=0 button=1 pulse=0
# Time=3500020000 PC=0000003c Instr=e3a0009c op7seg=1010110 bx_check=1a0009 alu_op=d s_bit=0 bx_match=0 button=0 pulse=0
# Time=3500045000 PC=0000003c Instr=e3a0009c op7seg=1010110 bx_check=1a0009 alu_op=d s_bit=0 bx_match=0 button=0 pulse=1
# Time=3500055000 PC=00000040 Instr=e3a010c8 op7seg=1010110 bx_check=1a010c alu_op=d s_bit=0 bx_match=0 button=0 pulse=0
# Time=3520020000 PC=00000040 Instr=e3a010c8 op7seg=1010110 bx_check=1a010c alu_op=d s_bit=0 bx_match=0 button=1 pulse=0
# Time=3720020000 PC=00000040 Instr=e3a010c8 op7seg=1010110 bx_check=1a010c alu_op=d s_bit=0 bx_match=0 button=0 pulse=0
# Time=3720045000 PC=00000040 Instr=e3a010c8 op7seg=1010110 bx_check=1a010c alu_op=d s_bit=0 bx_match=0 button=0 pulse=1
# Time=3720055000 PC=00000044 Instr=e3a02281 op7seg=1010110 bx_check=1a0228 alu_op=d s_bit=0 bx_match=0 button=0 pulse=0
# Time=3740020000 PC=00000044 Instr=e3a02281 op7seg=1010110 bx_check=1a0228 alu_op=d s_bit=0 bx_match=0 button=1 pulse=0
# Time=3940020000 PC=00000044 Instr=e3a02281 op7seg=1010110 bx_check=1a0228 alu_op=d s_bit=0 bx_match=0 button=0 pulse=0
# Time=3940045000 PC=00000044 Instr=e3a02281 op7seg=1010110 bx_check=1a0228 alu_op=d s_bit=0 bx_match=0 button=0 pulse=1
# Time=3940055000 PC=00000048 Instr=e5820000 op7seg=1011011 bx_check=182000 alu_op=c s_bit=0 bx_match=0 button=0 pulse=0
