simulation/modelsim/msim_transcript
# Reading C:/intelFPGA_lite/18.1/modelsim_ase/tcl/vsim/pref.tcl
# do computer_top_run_msim_rtl_verilog.do
# if {[file exists rtl_work]} {
# 	vdel -lib rtl_work -all
# }
# vlib rtl_work
# vmap work rtl_work
# Model Technology ModelSim - Intel FPGA Edition vmap 10.5b Lib Mapping Utility 2016.10 Oct  5 2016
# vmap work rtl_work 
# Copying C:/intelFPGA_lite/18.1/modelsim_ase/win32aloem/../modelsim.ini to modelsim.ini
# Modifying modelsim.ini
# 
# vlog -sv -work work +incdir+C:/Users/Ayudapls/Documents/GitHub/proyecto-final-tallerDD {C:/Users/Ayudapls/Documents/GitHub/proyecto-final-tallerDD/arm.sv}
# Model Technology ModelSim - Intel FPGA Edition vlog 10.5b Compiler 2016.10 Oct  5 2016
# Start time: 20:47:05 on Jun 11,2025
# vlog -reportprogress 300 -sv -work work "+incdir+C:/Users/Ayudapls/Documents/GitHub/proyecto-final-tallerDD" C:/Users/Ayudapls/Documents/GitHub/proyecto-final-tallerDD/arm.sv 
# -- Compiling module arm
# 
# Top level modules:
# 	arm
# End time: 20:47:05 on Jun 11,2025, Elapsed time: 0:00:00
# Errors: 0, Warnings: 0
# vlog -sv -work work +incdir+C:/Users/Ayudapls/Documents/GitHub/proyecto-final-tallerDD {C:/Users/Ayudapls/Documents/GitHub/proyecto-final-tallerDD/computer_top.sv}
# Model Technology ModelSim - Intel FPGA Edition vlog 10.5b Compiler 2016.10 Oct  5 2016
# Start time: 20:47:05 on Jun 11,2025
# vlog -reportprogress 300 -sv -work work "+incdir+C:/Users/Ayudapls/Documents/GitHub/proyecto-final-tallerDD" C:/Users/Ayudapls/Documents/GitHub/proyecto-final-tallerDD/computer_top.sv 
# -- Compiling module computer_top
# 
# Top level modules:
# 	computer_top
# End time: 20:47:05 on Jun 11,2025, Elapsed time: 0:00:00
# Errors: 0, Warnings: 0
# vlog -sv -work work +incdir+C:/Users/Ayudapls/Documents/GitHub/proyecto-final-tallerDD {C:/Users/Ayudapls/Documents/GitHub/proyecto-final-tallerDD/controller.sv}
# Model Technology ModelSim - Intel FPGA Edition vlog 10.5b Compiler 2016.10 Oct  5 2016
# Start time: 20:47:05 on Jun 11,2025
# vlog -reportprogress 300 -sv -work work "+incdir+C:/Users/Ayudapls/Documents/GitHub/proyecto-final-tallerDD" C:/Users/Ayudapls/Documents/GitHub/proyecto-final-tallerDD/controller.sv 
# -- Compiling module controller
# 
# Top level modules:
# 	controller
# End time: 20:47:05 on Jun 11,2025, Elapsed time: 0:00:00
# Errors: 0, Warnings: 0
# vlog -sv -work work +incdir+C:/Users/Ayudapls/Documents/GitHub/proyecto-final-tallerDD {C:/Users/Ayudapls/Documents/GitHub/proyecto-final-tallerDD/decoder.sv}
# Model Technology ModelSim - Intel FPGA Edition vlog 10.5b Compiler 2016.10 Oct  5 2016
# Start time: 20:47:05 on Jun 11,2025
# vlog -reportprogress 300 -sv -work work "+incdir+C:/Users/Ayudapls/Documents/GitHub/proyecto-final-tallerDD" C:/Users/Ayudapls/Documents/GitHub/proyecto-final-tallerDD/decoder.sv 
# -- Compiling module decoder
# 
# Top level modules:
# 	decoder
# End time: 20:47:06 on Jun 11,2025, Elapsed time: 0:00:01
# Errors: 0, Warnings: 0
# vlog -sv -work work +incdir+C:/Users/Ayudapls/Documents/GitHub/proyecto-final-tallerDD {C:/Users/Ayudapls/Documents/GitHub/proyecto-final-tallerDD/condlogic.sv}
# Model Technology ModelSim - Intel FPGA Edition vlog 10.5b Compiler 2016.10 Oct  5 2016
# Start time: 20:47:06 on Jun 11,2025
# vlog -reportprogress 300 -sv -work work "+incdir+C:/Users/Ayudapls/Documents/GitHub/proyecto-final-tallerDD" C:/Users/Ayudapls/Documents/GitHub/proyecto-final-tallerDD/condlogic.sv 
# -- Compiling module condlogic
# 
# Top level modules:
# 	condlogic
# End time: 20:47:06 on Jun 11,2025, Elapsed time: 0:00:00
# Errors: 0, Warnings: 0
# vlog -sv -work work +incdir+C:/Users/Ayudapls/Documents/GitHub/proyecto-final-tallerDD {C:/Users/Ayudapls/Documents/GitHub/proyecto-final-tallerDD/datapath.sv}
# Model Technology ModelSim - Intel FPGA Edition vlog 10.5b Compiler 2016.10 Oct  5 2016
# Start time: 20:47:06 on Jun 11,2025
# vlog -reportprogress 300 -sv -work work "+incdir+C:/Users/Ayudapls/Documents/GitHub/proyecto-final-tallerDD" C:/Users/Ayudapls/Documents/GitHub/proyecto-final-tallerDD/datapath.sv 
# -- Compiling module datapath
# 
# Top level modules:
# 	datapath
# End time: 20:47:06 on Jun 11,2025, Elapsed time: 0:00:00
# Errors: 0, Warnings: 0
# vlog -sv -work work +incdir+C:/Users/Ayudapls/Documents/GitHub/proyecto-final-tallerDD {C:/Users/Ayudapls/Documents/GitHub/proyecto-final-tallerDD/regfile.sv}
# Model Technology ModelSim - Intel FPGA Edition vlog 10.5b Compiler 2016.10 Oct  5 2016
# Start time: 20:47:06 on Jun 11,2025
# vlog -reportprogress 300 -sv -work work "+incdir+C:/Users/Ayudapls/Documents/GitHub/proyecto-final-tallerDD" C:/Users/Ayudapls/Documents/GitHub/proyecto-final-tallerDD/regfile.sv 
# -- Compiling module regfile
# 
# Top level modules:
# 	regfile
# End time: 20:47:06 on Jun 11,2025, Elapsed time: 0:00:00
# Errors: 0, Warnings: 0
# vlog -sv -work work +incdir+C:/Users/Ayudapls/Documents/GitHub/proyecto-final-tallerDD {C:/Users/Ayudapls/Documents/GitHub/proyecto-final-tallerDD/adder.sv}
# Model Technology ModelSim - Intel FPGA Edition vlog 10.5b Compiler 2016.10 Oct  5 2016
# Start time: 20:47:06 on Jun 11,2025
# vlog -reportprogress 300 -sv -work work "+incdir+C:/Users/Ayudapls/Documents/GitHub/proyecto-final-tallerDD" C:/Users/Ayudapls/Documents/GitHub/proyecto-final-tallerDD/adder.sv 
# -- Compiling module adder
# 
# Top level modules:
# 	adder
# End time: 20:47:06 on Jun 11,2025, Elapsed time: 0:00:00
# Errors: 0, Warnings: 0
# vlog -sv -work work +incdir+C:/Users/Ayudapls/Documents/GitHub/proyecto-final-tallerDD {C:/Users/Ayudapls/Documents/GitHub/proyecto-final-tallerDD/extend.sv}
# Model Technology ModelSim - Intel FPGA Edition vlog 10.5b Compiler 2016.10 Oct  5 2016
# Start time: 20:47:06 on Jun 11,2025
# vlog -reportprogress 300 -sv -work work "+incdir+C:/Users/Ayudapls/Documents/GitHub/proyecto-final-tallerDD" C:/Users/Ayudapls/Documents/GitHub/proyecto-final-tallerDD/extend.sv 
# -- Compiling module extend
# 
# Top level modules:
# 	extend
# End time: 20:47:06 on Jun 11,2025, Elapsed time: 0:00:00
# Errors: 0, Warnings: 0
# vlog -sv -work work +incdir+C:/Users/Ayudapls/Documents/GitHub/proyecto-final-tallerDD {C:/Users/Ayudapls/Documents/GitHub/proyecto-final-tallerDD/flopenr.sv}
# Model Technology ModelSim - Intel FPGA Edition vlog 10.5b Compiler 2016.10 Oct  5 2016
# Start time: 20:47:07 on Jun 11,2025
# vlog -reportprogress 300 -sv -work work "+incdir+C:/Users/Ayudapls/Documents/GitHub/proyecto-final-tallerDD" C:/Users/Ayudapls/Documents/GitHub/proyecto-final-tallerDD/flopenr.sv 
# -- Compiling module flopenr
# 
# Top level modules:
# 	flopenr
# End time: 20:47:07 on Jun 11,2025, Elapsed time: 0:00:00
# Errors: 0, Warnings: 0
# vlog -sv -work work +incdir+C:/Users/Ayudapls/Documents/GitHub/proyecto-final-tallerDD {C:/Users/Ayudapls/Documents/GitHub/proyecto-final-tallerDD/mux2.sv}
# Model Technology ModelSim - Intel FPGA Edition vlog 10.5b Compiler 2016.10 Oct  5 2016
# Start time: 20:47:07 on Jun 11,2025
# vlog -reportprogress 300 -sv -work work "+incdir+C:/Users/Ayudapls/Documents/GitHub/proyecto-final-tallerDD" C:/Users/Ayudapls/Documents/GitHub/proyecto-final-tallerDD/mux2.sv 
# -- Compiling module mux2
# 
# Top level modules:
# 	mux2
# End time: 20:47:07 on Jun 11,2025, Elapsed time: 0:00:00
# Errors: 0, Warnings: 0
# vlog -sv -work work +incdir+C:/Users/Ayudapls/Documents/GitHub/proyecto-final-tallerDD {C:/Users/Ayudapls/Documents/GitHub/proyecto-final-tallerDD/dmem.sv}
# Model Technology ModelSim - Intel FPGA Edition vlog 10.5b Compiler 2016.10 Oct  5 2016
# Start time: 20:47:07 on Jun 11,2025
# vlog -reportprogress 300 -sv -work work "+incdir+C:/Users/Ayudapls/Documents/GitHub/proyecto-final-tallerDD" C:/Users/Ayudapls/Documents/GitHub/proyecto-final-tallerDD/dmem.sv 
# -- Compiling module dmem
# 
# Top level modules:
# 	dmem
# End time: 20:47:07 on Jun 11,2025, Elapsed time: 0:00:00
# Errors: 0, Warnings: 0
# vlog -sv -work work +incdir+C:/Users/Ayudapls/Documents/GitHub/proyecto-final-tallerDD {C:/Users/Ayudapls/Documents/GitHub/proyecto-final-tallerDD/alu.sv}
# Model Technology ModelSim - Intel FPGA Edition vlog 10.5b Compiler 2016.10 Oct  5 2016
# Start time: 20:47:07 on Jun 11,2025
# vlog -reportprogress 300 -sv -work work "+incdir+C:/Users/Ayudapls/Documents/GitHub/proyecto-final-tallerDD" C:/Users/Ayudapls/Documents/GitHub/proyecto-final-tallerDD/alu.sv 
# -- Compiling module alu
# 
# Top level modules:
# 	alu
# End time: 20:47:07 on Jun 11,2025, Elapsed time: 0:00:00
# Errors: 0, Warnings: 0
# vlog -sv -work work +incdir+C:/Users/Ayudapls/Documents/GitHub/proyecto-final-tallerDD {C:/Users/Ayudapls/Documents/GitHub/proyecto-final-tallerDD/imem.sv}
# Model Technology ModelSim - Intel FPGA Edition vlog 10.5b Compiler 2016.10 Oct  5 2016
# Start time: 20:47:07 on Jun 11,2025
# vlog -reportprogress 300 -sv -work work "+incdir+C:/Users/Ayudapls/Documents/GitHub/proyecto-final-tallerDD" C:/Users/Ayudapls/Documents/GitHub/proyecto-final-tallerDD/imem.sv 
# -- Compiling module imem
# 
# Top level modules:
# 	imem
# End time: 20:47:07 on Jun 11,2025, Elapsed time: 0:00:00
# Errors: 0, Warnings: 0
# 
# vlog -sv -work work +incdir+C:/Users/Ayudapls/Documents/GitHub/proyecto-final-tallerDD {C:/Users/Ayudapls/Documents/GitHub/proyecto-final-tallerDD/testbench.sv}
# Model Technology ModelSim - Intel FPGA Edition vlog 10.5b Compiler 2016.10 Oct  5 2016
# Start time: 20:47:07 on Jun 11,2025
# vlog -reportprogress 300 -sv -work work "+incdir+C:/Users/Ayudapls/Documents/GitHub/proyecto-final-tallerDD" C:/Users/Ayudapls/Documents/GitHub/proyecto-final-tallerDD/testbench.sv 
# -- Compiling module testbench
# 
# Top level modules:
# 	testbench
# End time: 20:47:07 on Jun 11,2025, Elapsed time: 0:00:00
# Errors: 0, Warnings: 0
# 
# vsim -t 1ps -L altera_ver -L lpm_ver -L sgate_ver -L altera_mf_ver -L altera_lnsim_ver -L cyclonev_ver -L cyclonev_hssi_ver -L cyclonev_pcie_hip_ver -L rtl_work -L work -voptargs="+acc"  testbench
# vsim -t 1ps -L altera_ver -L lpm_ver -L sgate_ver -L altera_mf_ver -L altera_lnsim_ver -L cyclonev_ver -L cyclonev_hssi_ver -L cyclonev_pcie_hip_ver -L rtl_work -L work -voptargs=""+acc"" testbench 
# Start time: 20:47:07 on Jun 11,2025
# Loading sv_std.std
# Loading work.testbench
# Loading work.computer_top
# Loading work.arm
# Loading work.controller
# Loading work.decoder
# Loading work.condlogic
# Loading work.flopenr
# Loading work.datapath
# Loading work.adder
# Loading work.mux2
# Loading work.regfile
# Loading work.extend
# Loading work.alu
# Loading work.imem
# Loading work.dmem
# 
# add wave *
# view structure
# .main_pane.structure.interior.cs.body.struct
# view signals
# .main_pane.objects.interior.cs.body.tree
# run -all
# ** Warning: (vsim-7) Failed to open readmem file "memfile.dat" in read mode.
# No such file or directory. (errno = ENOENT)    : C:/Users/Ayudapls/Documents/GitHub/proyecto-final-tallerDD/imem.sv(8)
#    Time: 0 ps  Iteration: 0  Instance: /testbench/dut/imem
# Time=0 PC=00000000 Instr=xxxxxxxx MemWrite=0 DataAdr=xxxxxxxx WriteData=xxxxxxxx
# Time=50 PC=00000004 Instr=xxxxxxxx MemWrite=0 DataAdr=xxxxxxxx WriteData=xxxxxxxx
# Time=70 PC=00000008 Instr=xxxxxxxx MemWrite=0 DataAdr=xxxxxxxx WriteData=xxxxxxxx
# Time=90 PC=0000000c Instr=xxxxxxxx MemWrite=0 DataAdr=xxxxxxxx WriteData=xxxxxxxx
# Time=110 PC=00000010 Instr=xxxxxxxx MemWrite=0 DataAdr=xxxxxxxx WriteData=xxxxxxxx
# Time=130 PC=00000014 Instr=xxxxxxxx MemWrite=0 DataAdr=xxxxxxxx WriteData=xxxxxxxx
# Time=150 PC=00000018 Instr=xxxxxxxx MemWrite=0 DataAdr=xxxxxxxx WriteData=xxxxxxxx
# Time=170 PC=0000001c Instr=xxxxxxxx MemWrite=0 DataAdr=xxxxxxxx WriteData=xxxxxxxx
# Time=190 PC=00000020 Instr=xxxxxxxx MemWrite=0 DataAdr=xxxxxxxx WriteData=xxxxxxxx
# Time=210 PC=00000024 Instr=xxxxxxxx MemWrite=0 DataAdr=xxxxxxxx WriteData=xxxxxxxx
# Time=230 PC=00000028 Instr=xxxxxxxx MemWrite=0 DataAdr=xxxxxxxx WriteData=xxxxxxxx
# Time=250 PC=0000002c Instr=xxxxxxxx MemWrite=0 DataAdr=xxxxxxxx WriteData=xxxxxxxx
# Time=270 PC=00000030 Instr=xxxxxxxx MemWrite=0 DataAdr=xxxxxxxx WriteData=xxxxxxxx
# Time=290 PC=00000034 Instr=xxxxxxxx MemWrite=0 DataAdr=xxxxxxxx WriteData=xxxxxxxx
# Time=310 PC=00000038 Instr=xxxxxxxx MemWrite=0 DataAdr=xxxxxxxx WriteData=xxxxxxxx
# Time=330 PC=0000003c Instr=xxxxxxxx MemWrite=0 DataAdr=xxxxxxxx WriteData=xxxxxxxx
# Time=350 PC=00000040 Instr=xxxxxxxx MemWrite=0 DataAdr=xxxxxxxx WriteData=xxxxxxxx
# Time=370 PC=00000044 Instr=xxxxxxxx MemWrite=0 DataAdr=xxxxxxxx WriteData=xxxxxxxx
# Time=390 PC=00000048 Instr=xxxxxxxx MemWrite=0 DataAdr=xxxxxxxx WriteData=xxxxxxxx
# Time=410 PC=0000004c Instr=xxxxxxxx MemWrite=0 DataAdr=xxxxxxxx WriteData=xxxxxxxx
# Time=430 PC=00000050 Instr=xxxxxxxx MemWrite=0 DataAdr=xxxxxxxx WriteData=xxxxxxxx
# Time=450 PC=00000054 Instr=xxxxxxxx MemWrite=0 DataAdr=xxxxxxxx WriteData=xxxxxxxx
# Time=470 PC=00000058 Instr=xxxxxxxx MemWrite=0 DataAdr=xxxxxxxx WriteData=xxxxxxxx
# Time=490 PC=0000005c Instr=xxxxxxxx MemWrite=0 DataAdr=xxxxxxxx WriteData=xxxxxxxx
# Time=510 PC=00000060 Instr=xxxxxxxx MemWrite=0 DataAdr=xxxxxxxx WriteData=xxxxxxxx
# Time=530 PC=00000064 Instr=xxxxxxxx MemWrite=0 DataAdr=xxxxxxxx WriteData=xxxxxxxx
# Time=550 PC=00000068 Instr=xxxxxxxx MemWrite=0 DataAdr=xxxxxxxx WriteData=xxxxxxxx
# Time=570 PC=0000006c Instr=xxxxxxxx MemWrite=0 DataAdr=xxxxxxxx WriteData=xxxxxxxx
# Time=590 PC=00000070 Instr=xxxxxxxx MemWrite=0 DataAdr=xxxxxxxx WriteData=xxxxxxxx
# Time=610 PC=00000074 Instr=xxxxxxxx MemWrite=0 DataAdr=xxxxxxxx WriteData=xxxxxxxx
# Time=630 PC=00000078 Instr=xxxxxxxx MemWrite=0 DataAdr=xxxxxxxx WriteData=xxxxxxxx
# Time=650 PC=0000007c Instr=xxxxxxxx MemWrite=0 DataAdr=xxxxxxxx WriteData=xxxxxxxx
# Time=670 PC=00000080 Instr=xxxxxxxx MemWrite=0 DataAdr=xxxxxxxx WriteData=xxxxxxxx
# Time=690 PC=00000084 Instr=xxxxxxxx MemWrite=0 DataAdr=xxxxxxxx WriteData=xxxxxxxx
# Time=710 PC=00000088 Instr=xxxxxxxx MemWrite=0 DataAdr=xxxxxxxx WriteData=xxxxxxxx
# Time=730 PC=0000008c Instr=xxxxxxxx MemWrite=0 DataAdr=xxxxxxxx WriteData=xxxxxxxx
# Time=750 PC=00000090 Instr=xxxxxxxx MemWrite=0 DataAdr=xxxxxxxx WriteData=xxxxxxxx
# Time=770 PC=00000094 Instr=xxxxxxxx MemWrite=0 DataAdr=xxxxxxxx WriteData=xxxxxxxx
# Time=790 PC=00000098 Instr=xxxxxxxx MemWrite=0 DataAdr=xxxxxxxx WriteData=xxxxxxxx
# Time=810 PC=0000009c Instr=xxxxxxxx MemWrite=0 DataAdr=xxxxxxxx WriteData=xxxxxxxx
# Time=830 PC=000000a0 Instr=xxxxxxxx MemWrite=0 DataAdr=xxxxxxxx WriteData=xxxxxxxx
# Time=850 PC=000000a4 Instr=xxxxxxxx MemWrite=0 DataAdr=xxxxxxxx WriteData=xxxxxxxx
# Time=870 PC=000000a8 Instr=xxxxxxxx MemWrite=0 DataAdr=xxxxxxxx WriteData=xxxxxxxx
# Time=890 PC=000000ac Instr=xxxxxxxx MemWrite=0 DataAdr=xxxxxxxx WriteData=xxxxxxxx
# Time=910 PC=000000b0 Instr=xxxxxxxx MemWrite=0 DataAdr=xxxxxxxx WriteData=xxxxxxxx
# Time=930 PC=000000b4 Instr=xxxxxxxx MemWrite=0 DataAdr=xxxxxxxx WriteData=xxxxxxxx
# Time=950 PC=000000b8 Instr=xxxxxxxx MemWrite=0 DataAdr=xxxxxxxx WriteData=xxxxxxxx
# Time=970 PC=000000bc Instr=xxxxxxxx MemWrite=0 DataAdr=xxxxxxxx WriteData=xxxxxxxx
# Time=990 PC=000000c0 Instr=xxxxxxxx MemWrite=0 DataAdr=xxxxxxxx WriteData=xxxxxxxx
# Time=1010 PC=000000c4 Instr=xxxxxxxx MemWrite=0 DataAdr=xxxxxxxx WriteData=xxxxxxxx
# Time=1030 PC=000000c8 Instr=xxxxxxxx MemWrite=0 DataAdr=xxxxxxxx WriteData=xxxxxxxx
# Time=1050 PC=000000cc Instr=xxxxxxxx MemWrite=0 DataAdr=xxxxxxxx WriteData=xxxxxxxx
# Time=1070 PC=000000d0 Instr=xxxxxxxx MemWrite=0 DataAdr=xxxxxxxx WriteData=xxxxxxxx
# Time=1090 PC=000000d4 Instr=xxxxxxxx MemWrite=0 DataAdr=xxxxxxxx WriteData=xxxxxxxx
# Time=1110 PC=000000d8 Instr=xxxxxxxx MemWrite=0 DataAdr=xxxxxxxx WriteData=xxxxxxxx
# Time=1130 PC=000000dc Instr=xxxxxxxx MemWrite=0 DataAdr=xxxxxxxx WriteData=xxxxxxxx
# Time=1150 PC=000000e0 Instr=xxxxxxxx MemWrite=0 DataAdr=xxxxxxxx WriteData=xxxxxxxx
# Time=1170 PC=000000e4 Instr=xxxxxxxx MemWrite=0 DataAdr=xxxxxxxx WriteData=xxxxxxxx
# Time=1190 PC=000000e8 Instr=xxxxxxxx MemWrite=0 DataAdr=xxxxxxxx WriteData=xxxxxxxx
# Time=1210 PC=000000ec Instr=xxxxxxxx MemWrite=0 DataAdr=xxxxxxxx WriteData=xxxxxxxx
# Time=1230 PC=000000f0 Instr=xxxxxxxx MemWrite=0 DataAdr=xxxxxxxx WriteData=xxxxxxxx
# Time=1250 PC=000000f4 Instr=xxxxxxxx MemWrite=0 DataAdr=xxxxxxxx WriteData=xxxxxxxx
# Time=1270 PC=000000f8 Instr=xxxxxxxx MemWrite=0 DataAdr=xxxxxxxx WriteData=xxxxxxxx
# Time=1290 PC=000000fc Instr=xxxxxxxx MemWrite=0 DataAdr=xxxxxxxx WriteData=xxxxxxxx
# Time=1310 PC=00000100 Instr=xxxxxxxx MemWrite=0 DataAdr=xxxxxxxx WriteData=xxxxxxxx
# Time=1330 PC=00000104 Instr=xxxxxxxx MemWrite=0 DataAdr=xxxxxxxx WriteData=xxxxxxxx
# Time=1350 PC=00000108 Instr=xxxxxxxx MemWrite=0 DataAdr=xxxxxxxx WriteData=xxxxxxxx
# Time=1370 PC=0000010c Instr=xxxxxxxx MemWrite=0 DataAdr=xxxxxxxx WriteData=xxxxxxxx
# Time=1390 PC=00000110 Instr=xxxxxxxx MemWrite=0 DataAdr=xxxxxxxx WriteData=xxxxxxxx
# Time=1410 PC=00000114 Instr=xxxxxxxx MemWrite=0 DataAdr=xxxxxxxx WriteData=xxxxxxxx
# Time=1430 PC=00000118 Instr=xxxxxxxx MemWrite=0 DataAdr=xxxxxxxx WriteData=xxxxxxxx
# Time=1450 PC=0000011c Instr=xxxxxxxx MemWrite=0 DataAdr=xxxxxxxx WriteData=xxxxxxxx
# Time=1470 PC=00000120 Instr=xxxxxxxx MemWrite=0 DataAdr=xxxxxxxx WriteData=xxxxxxxx
# Time=1490 PC=00000124 Instr=xxxxxxxx MemWrite=0 DataAdr=xxxxxxxx WriteData=xxxxxxxx
# Time=1510 PC=00000128 Instr=xxxxxxxx MemWrite=0 DataAdr=xxxxxxxx WriteData=xxxxxxxx
# Time=1530 PC=0000012c Instr=xxxxxxxx MemWrite=0 DataAdr=xxxxxxxx WriteData=xxxxxxxx
# Time=1550 PC=00000130 Instr=xxxxxxxx MemWrite=0 DataAdr=xxxxxxxx WriteData=xxxxxxxx
# Time=1570 PC=00000134 Instr=xxxxxxxx MemWrite=0 DataAdr=xxxxxxxx WriteData=xxxxxxxx
# Time=1590 PC=00000138 Instr=xxxxxxxx MemWrite=0 DataAdr=xxxxxxxx WriteData=xxxxxxxx
# Time=1610 PC=0000013c Instr=xxxxxxxx MemWrite=0 DataAdr=xxxxxxxx WriteData=xxxxxxxx
# Time=1630 PC=00000140 Instr=xxxxxxxx MemWrite=0 DataAdr=xxxxxxxx WriteData=xxxxxxxx
# Time=1650 PC=00000144 Instr=xxxxxxxx MemWrite=0 DataAdr=xxxxxxxx WriteData=xxxxxxxx
# Time=1670 PC=00000148 Instr=xxxxxxxx MemWrite=0 DataAdr=xxxxxxxx WriteData=xxxxxxxx
# Time=1690 PC=0000014c Instr=xxxxxxxx MemWrite=0 DataAdr=xxxxxxxx WriteData=xxxxxxxx
# Time=1710 PC=00000150 Instr=xxxxxxxx MemWrite=0 DataAdr=xxxxxxxx WriteData=xxxxxxxx
# Time=1730 PC=00000154 Instr=xxxxxxxx MemWrite=0 DataAdr=xxxxxxxx WriteData=xxxxxxxx
# Time=1750 PC=00000158 Instr=xxxxxxxx MemWrite=0 DataAdr=xxxxxxxx WriteData=xxxxxxxx
# Time=1770 PC=0000015c Instr=xxxxxxxx MemWrite=0 DataAdr=xxxxxxxx WriteData=xxxxxxxx
# Time=1790 PC=00000160 Instr=xxxxxxxx MemWrite=0 DataAdr=xxxxxxxx WriteData=xxxxxxxx
# Time=1810 PC=00000164 Instr=xxxxxxxx MemWrite=0 DataAdr=xxxxxxxx WriteData=xxxxxxxx
# Time=1830 PC=00000168 Instr=xxxxxxxx MemWrite=0 DataAdr=xxxxxxxx WriteData=xxxxxxxx
# Time=1850 PC=0000016c Instr=xxxxxxxx MemWrite=0 DataAdr=xxxxxxxx WriteData=xxxxxxxx
# Time=1870 PC=00000170 Instr=xxxxxxxx MemWrite=0 DataAdr=xxxxxxxx WriteData=xxxxxxxx
# Time=1890 PC=00000174 Instr=xxxxxxxx MemWrite=0 DataAdr=xxxxxxxx WriteData=xxxxxxxx
# Time=1910 PC=00000178 Instr=xxxxxxxx MemWrite=0 DataAdr=xxxxxxxx WriteData=xxxxxxxx
# Time=1930 PC=0000017c Instr=xxxxxxxx MemWrite=0 DataAdr=xxxxxxxx WriteData=xxxxxxxx
# Time=1950 PC=00000180 Instr=xxxxxxxx MemWrite=0 DataAdr=xxxxxxxx WriteData=xxxxxxxx
# Time=1970 PC=00000184 Instr=xxxxxxxx MemWrite=0 DataAdr=xxxxxxxx WriteData=xxxxxxxx
# Time=1990 PC=00000188 Instr=xxxxxxxx MemWrite=0 DataAdr=xxxxxxxx WriteData=xxxxxxxx
# Time=2010 PC=0000018c Instr=xxxxxxxx MemWrite=0 DataAdr=xxxxxxxx WriteData=xxxxxxxx
# Time=2030 PC=00000190 Instr=xxxxxxxx MemWrite=0 DataAdr=xxxxxxxx WriteData=xxxxxxxx
# Time=2050 PC=00000194 Instr=xxxxxxxx MemWrite=0 DataAdr=xxxxxxxx WriteData=xxxxxxxx
# Time=2070 PC=00000198 Instr=xxxxxxxx MemWrite=0 DataAdr=xxxxxxxx WriteData=xxxxxxxx
# Time=2090 PC=0000019c Instr=xxxxxxxx MemWrite=0 DataAdr=xxxxxxxx WriteData=xxxxxxxx
# Time=2110 PC=000001a0 Instr=xxxxxxxx MemWrite=0 DataAdr=xxxxxxxx WriteData=xxxxxxxx
# Time=2130 PC=000001a4 Instr=xxxxxxxx MemWrite=0 DataAdr=xxxxxxxx WriteData=xxxxxxxx
# Time=2150 PC=000001a8 Instr=xxxxxxxx MemWrite=0 DataAdr=xxxxxxxx WriteData=xxxxxxxx
# Time=2170 PC=000001ac Instr=xxxxxxxx MemWrite=0 DataAdr=xxxxxxxx WriteData=xxxxxxxx
# Time=2190 PC=000001b0 Instr=xxxxxxxx MemWrite=0 DataAdr=xxxxxxxx WriteData=xxxxxxxx
# Time=2210 PC=000001b4 Instr=xxxxxxxx MemWrite=0 DataAdr=xxxxxxxx WriteData=xxxxxxxx
# Time=2230 PC=000001b8 Instr=xxxxxxxx MemWrite=0 DataAdr=xxxxxxxx WriteData=xxxxxxxx
# Time=2250 PC=000001bc Instr=xxxxxxxx MemWrite=0 DataAdr=xxxxxxxx WriteData=xxxxxxxx
# Time=2270 PC=000001c0 Instr=xxxxxxxx MemWrite=0 DataAdr=xxxxxxxx WriteData=xxxxxxxx
# Time=2290 PC=000001c4 Instr=xxxxxxxx MemWrite=0 DataAdr=xxxxxxxx WriteData=xxxxxxxx
# Time=2310 PC=000001c8 Instr=xxxxxxxx MemWrite=0 DataAdr=xxxxxxxx WriteData=xxxxxxxx
# Time=2330 PC=000001cc Instr=xxxxxxxx MemWrite=0 DataAdr=xxxxxxxx WriteData=xxxxxxxx
# Time=2350 PC=000001d0 Instr=xxxxxxxx MemWrite=0 DataAdr=xxxxxxxx WriteData=xxxxxxxx
# Time=2370 PC=000001d4 Instr=xxxxxxxx MemWrite=0 DataAdr=xxxxxxxx WriteData=xxxxxxxx
# Time=2390 PC=000001d8 Instr=xxxxxxxx MemWrite=0 DataAdr=xxxxxxxx WriteData=xxxxxxxx
# Time=2410 PC=000001dc Instr=xxxxxxxx MemWrite=0 DataAdr=xxxxxxxx WriteData=xxxxxxxx
# Time=2430 PC=000001e0 Instr=xxxxxxxx MemWrite=0 DataAdr=xxxxxxxx WriteData=xxxxxxxx
# Time=2450 PC=000001e4 Instr=xxxxxxxx MemWrite=0 DataAdr=xxxxxxxx WriteData=xxxxxxxx
# Time=2470 PC=000001e8 Instr=xxxxxxxx MemWrite=0 DataAdr=xxxxxxxx WriteData=xxxxxxxx
# Time=2490 PC=000001ec Instr=xxxxxxxx MemWrite=0 DataAdr=xxxxxxxx WriteData=xxxxxxxx
# Time=2510 PC=000001f0 Instr=xxxxxxxx MemWrite=0 DataAdr=xxxxxxxx WriteData=xxxxxxxx
# Time=2530 PC=000001f4 Instr=xxxxxxxx MemWrite=0 DataAdr=xxxxxxxx WriteData=xxxxxxxx
# Time=2550 PC=000001f8 Instr=xxxxxxxx MemWrite=0 DataAdr=xxxxxxxx WriteData=xxxxxxxx
# Time=2570 PC=000001fc Instr=xxxxxxxx MemWrite=0 DataAdr=xxxxxxxx WriteData=xxxxxxxx
# Time=2590 PC=00000200 Instr=xxxxxxxx MemWrite=0 DataAdr=xxxxxxxx WriteData=xxxxxxxx
# Time=2610 PC=00000204 Instr=xxxxxxxx MemWrite=0 DataAdr=xxxxxxxx WriteData=xxxxxxxx
# Time=2630 PC=00000208 Instr=xxxxxxxx MemWrite=0 DataAdr=xxxxxxxx WriteData=xxxxxxxx
# Time=2650 PC=0000020c Instr=xxxxxxxx MemWrite=0 DataAdr=xxxxxxxx WriteData=xxxxxxxx
# Time=2670 PC=00000210 Instr=xxxxxxxx MemWrite=0 DataAdr=xxxxxxxx WriteData=xxxxxxxx
# Time=2690 PC=00000214 Instr=xxxxxxxx MemWrite=0 DataAdr=xxxxxxxx WriteData=xxxxxxxx
# Time=2710 PC=00000218 Instr=xxxxxxxx MemWrite=0 DataAdr=xxxxxxxx WriteData=xxxxxxxx
# Time=2730 PC=0000021c Instr=xxxxxxxx MemWrite=0 DataAdr=xxxxxxxx WriteData=xxxxxxxx
# Time=2750 PC=00000220 Instr=xxxxxxxx MemWrite=0 DataAdr=xxxxxxxx WriteData=xxxxxxxx
# Time=2770 PC=00000224 Instr=xxxxxxxx MemWrite=0 DataAdr=xxxxxxxx WriteData=xxxxxxxx
# Time=2790 PC=00000228 Instr=xxxxxxxx MemWrite=0 DataAdr=xxxxxxxx WriteData=xxxxxxxx
# Time=2810 PC=0000022c Instr=xxxxxxxx MemWrite=0 DataAdr=xxxxxxxx WriteData=xxxxxxxx
# Time=2830 PC=00000230 Instr=xxxxxxxx MemWrite=0 DataAdr=xxxxxxxx WriteData=xxxxxxxx
# Time=2850 PC=00000234 Instr=xxxxxxxx MemWrite=0 DataAdr=xxxxxxxx WriteData=xxxxxxxx
# Time=2870 PC=00000238 Instr=xxxxxxxx MemWrite=0 DataAdr=xxxxxxxx WriteData=xxxxxxxx
