simulation/modelsim/msim_transcript
# Reading C:/intelFPGA_lite/18.1/modelsim_ase/tcl/vsim/pref.tcl
# do computer_top_run_msim_rtl_verilog.do
# if {[file exists rtl_work]} {
# 	vdel -lib rtl_work -all
# }
# vlib rtl_work
# vmap work rtl_work
# Model Technology ModelSim - Intel FPGA Edition vmap 10.5b Lib Mapping Utility 2016.10 Oct  5 2016
# vmap work rtl_work 
# Copying C:/intelFPGA_lite/18.1/modelsim_ase/win32aloem/../modelsim.ini to modelsim.ini
# Modifying modelsim.ini
# 
# vlog -vlog01compat -work work +incdir+C:/Users/Ayudapls/Documents/GitHub/proyecto-final-tallerDD {C:/Users/Ayudapls/Documents/GitHub/proyecto-final-tallerDD/rom.v}
# Model Technology ModelSim - Intel FPGA Edition vlog 10.5b Compiler 2016.10 Oct  5 2016
# Start time: 16:44:02 on Jun 15,2025
# vlog -reportprogress 300 -vlog01compat -work work "+incdir+C:/Users/Ayudapls/Documents/GitHub/proyecto-final-tallerDD" C:/Users/Ayudapls/Documents/GitHub/proyecto-final-tallerDD/rom.v 
# -- Compiling module rom
# 
# Top level modules:
# 	rom
# End time: 16:44:03 on Jun 15,2025, Elapsed time: 0:00:01
# Errors: 0, Warnings: 0
# vlog -vlog01compat -work work +incdir+C:/Users/Ayudapls/Documents/GitHub/proyecto-final-tallerDD {C:/Users/Ayudapls/Documents/GitHub/proyecto-final-tallerDD/ram.v}
# Model Technology ModelSim - Intel FPGA Edition vlog 10.5b Compiler 2016.10 Oct  5 2016
# Start time: 16:44:03 on Jun 15,2025
# vlog -reportprogress 300 -vlog01compat -work work "+incdir+C:/Users/Ayudapls/Documents/GitHub/proyecto-final-tallerDD" C:/Users/Ayudapls/Documents/GitHub/proyecto-final-tallerDD/ram.v 
# -- Compiling module ram
# 
# Top level modules:
# 	ram
# End time: 16:44:03 on Jun 15,2025, Elapsed time: 0:00:00
# Errors: 0, Warnings: 0
# vlog -sv -work work +incdir+C:/Users/Ayudapls/Documents/GitHub/proyecto-final-tallerDD {C:/Users/Ayudapls/Documents/GitHub/proyecto-final-tallerDD/arm.sv}
# Model Technology ModelSim - Intel FPGA Edition vlog 10.5b Compiler 2016.10 Oct  5 2016
# Start time: 16:44:03 on Jun 15,2025
# vlog -reportprogress 300 -sv -work work "+incdir+C:/Users/Ayudapls/Documents/GitHub/proyecto-final-tallerDD" C:/Users/Ayudapls/Documents/GitHub/proyecto-final-tallerDD/arm.sv 
# -- Compiling module arm
# 
# Top level modules:
# 	arm
# End time: 16:44:03 on Jun 15,2025, Elapsed time: 0:00:00
# Errors: 0, Warnings: 0
# vlog -sv -work work +incdir+C:/Users/Ayudapls/Documents/GitHub/proyecto-final-tallerDD {C:/Users/Ayudapls/Documents/GitHub/proyecto-final-tallerDD/computer_top.sv}
# Model Technology ModelSim - Intel FPGA Edition vlog 10.5b Compiler 2016.10 Oct  5 2016
# Start time: 16:44:03 on Jun 15,2025
# vlog -reportprogress 300 -sv -work work "+incdir+C:/Users/Ayudapls/Documents/GitHub/proyecto-final-tallerDD" C:/Users/Ayudapls/Documents/GitHub/proyecto-final-tallerDD/computer_top.sv 
# -- Compiling module computer_top
# 
# Top level modules:
# 	computer_top
# End time: 16:44:03 on Jun 15,2025, Elapsed time: 0:00:00
# Errors: 0, Warnings: 0
# vlog -sv -work work +incdir+C:/Users/Ayudapls/Documents/GitHub/proyecto-final-tallerDD {C:/Users/Ayudapls/Documents/GitHub/proyecto-final-tallerDD/controller.sv}
# Model Technology ModelSim - Intel FPGA Edition vlog 10.5b Compiler 2016.10 Oct  5 2016
# Start time: 16:44:03 on Jun 15,2025
# vlog -reportprogress 300 -sv -work work "+incdir+C:/Users/Ayudapls/Documents/GitHub/proyecto-final-tallerDD" C:/Users/Ayudapls/Documents/GitHub/proyecto-final-tallerDD/controller.sv 
# -- Compiling module controller
# 
# Top level modules:
# 	controller
# End time: 16:44:03 on Jun 15,2025, Elapsed time: 0:00:00
# Errors: 0, Warnings: 0
# vlog -sv -work work +incdir+C:/Users/Ayudapls/Documents/GitHub/proyecto-final-tallerDD {C:/Users/Ayudapls/Documents/GitHub/proyecto-final-tallerDD/decoder.sv}
# Model Technology ModelSim - Intel FPGA Edition vlog 10.5b Compiler 2016.10 Oct  5 2016
# Start time: 16:44:03 on Jun 15,2025
# vlog -reportprogress 300 -sv -work work "+incdir+C:/Users/Ayudapls/Documents/GitHub/proyecto-final-tallerDD" C:/Users/Ayudapls/Documents/GitHub/proyecto-final-tallerDD/decoder.sv 
# -- Compiling module decoder
# 
# Top level modules:
# 	decoder
# End time: 16:44:03 on Jun 15,2025, Elapsed time: 0:00:00
# Errors: 0, Warnings: 0
# vlog -sv -work work +incdir+C:/Users/Ayudapls/Documents/GitHub/proyecto-final-tallerDD {C:/Users/Ayudapls/Documents/GitHub/proyecto-final-tallerDD/condlogic.sv}
# Model Technology ModelSim - Intel FPGA Edition vlog 10.5b Compiler 2016.10 Oct  5 2016
# Start time: 16:44:03 on Jun 15,2025
# vlog -reportprogress 300 -sv -work work "+incdir+C:/Users/Ayudapls/Documents/GitHub/proyecto-final-tallerDD" C:/Users/Ayudapls/Documents/GitHub/proyecto-final-tallerDD/condlogic.sv 
# -- Compiling module condlogic
# 
# Top level modules:
# 	condlogic
# End time: 16:44:03 on Jun 15,2025, Elapsed time: 0:00:00
# Errors: 0, Warnings: 0
# vlog -sv -work work +incdir+C:/Users/Ayudapls/Documents/GitHub/proyecto-final-tallerDD {C:/Users/Ayudapls/Documents/GitHub/proyecto-final-tallerDD/datapath.sv}
# Model Technology ModelSim - Intel FPGA Edition vlog 10.5b Compiler 2016.10 Oct  5 2016
# Start time: 16:44:03 on Jun 15,2025
# vlog -reportprogress 300 -sv -work work "+incdir+C:/Users/Ayudapls/Documents/GitHub/proyecto-final-tallerDD" C:/Users/Ayudapls/Documents/GitHub/proyecto-final-tallerDD/datapath.sv 
# -- Compiling module datapath
# 
# Top level modules:
# 	datapath
# End time: 16:44:03 on Jun 15,2025, Elapsed time: 0:00:00
# Errors: 0, Warnings: 0
# vlog -sv -work work +incdir+C:/Users/Ayudapls/Documents/GitHub/proyecto-final-tallerDD {C:/Users/Ayudapls/Documents/GitHub/proyecto-final-tallerDD/regfile.sv}
# Model Technology ModelSim - Intel FPGA Edition vlog 10.5b Compiler 2016.10 Oct  5 2016
# Start time: 16:44:03 on Jun 15,2025
# vlog -reportprogress 300 -sv -work work "+incdir+C:/Users/Ayudapls/Documents/GitHub/proyecto-final-tallerDD" C:/Users/Ayudapls/Documents/GitHub/proyecto-final-tallerDD/regfile.sv 
# -- Compiling module regfile
# 
# Top level modules:
# 	regfile
# End time: 16:44:03 on Jun 15,2025, Elapsed time: 0:00:00
# Errors: 0, Warnings: 0
# vlog -sv -work work +incdir+C:/Users/Ayudapls/Documents/GitHub/proyecto-final-tallerDD {C:/Users/Ayudapls/Documents/GitHub/proyecto-final-tallerDD/adder.sv}
# Model Technology ModelSim - Intel FPGA Edition vlog 10.5b Compiler 2016.10 Oct  5 2016
# Start time: 16:44:03 on Jun 15,2025
# vlog -reportprogress 300 -sv -work work "+incdir+C:/Users/Ayudapls/Documents/GitHub/proyecto-final-tallerDD" C:/Users/Ayudapls/Documents/GitHub/proyecto-final-tallerDD/adder.sv 
# -- Compiling module adder
# 
# Top level modules:
# 	adder
# End time: 16:44:03 on Jun 15,2025, Elapsed time: 0:00:00
# Errors: 0, Warnings: 0
# vlog -sv -work work +incdir+C:/Users/Ayudapls/Documents/GitHub/proyecto-final-tallerDD {C:/Users/Ayudapls/Documents/GitHub/proyecto-final-tallerDD/extend.sv}
# Model Technology ModelSim - Intel FPGA Edition vlog 10.5b Compiler 2016.10 Oct  5 2016
# Start time: 16:44:03 on Jun 15,2025
# vlog -reportprogress 300 -sv -work work "+incdir+C:/Users/Ayudapls/Documents/GitHub/proyecto-final-tallerDD" C:/Users/Ayudapls/Documents/GitHub/proyecto-final-tallerDD/extend.sv 
# -- Compiling module extend
# 
# Top level modules:
# 	extend
# End time: 16:44:03 on Jun 15,2025, Elapsed time: 0:00:00
# Errors: 0, Warnings: 0
# vlog -sv -work work +incdir+C:/Users/Ayudapls/Documents/GitHub/proyecto-final-tallerDD {C:/Users/Ayudapls/Documents/GitHub/proyecto-final-tallerDD/flopr.sv}
# Model Technology ModelSim - Intel FPGA Edition vlog 10.5b Compiler 2016.10 Oct  5 2016
# Start time: 16:44:03 on Jun 15,2025
# vlog -reportprogress 300 -sv -work work "+incdir+C:/Users/Ayudapls/Documents/GitHub/proyecto-final-tallerDD" C:/Users/Ayudapls/Documents/GitHub/proyecto-final-tallerDD/flopr.sv 
# -- Compiling module flopr
# 
# Top level modules:
# 	flopr
# End time: 16:44:03 on Jun 15,2025, Elapsed time: 0:00:00
# Errors: 0, Warnings: 0
# vlog -sv -work work +incdir+C:/Users/Ayudapls/Documents/GitHub/proyecto-final-tallerDD {C:/Users/Ayudapls/Documents/GitHub/proyecto-final-tallerDD/flopenr.sv}
# Model Technology ModelSim - Intel FPGA Edition vlog 10.5b Compiler 2016.10 Oct  5 2016
# Start time: 16:44:03 on Jun 15,2025
# vlog -reportprogress 300 -sv -work work "+incdir+C:/Users/Ayudapls/Documents/GitHub/proyecto-final-tallerDD" C:/Users/Ayudapls/Documents/GitHub/proyecto-final-tallerDD/flopenr.sv 
# -- Compiling module flopenr
# 
# Top level modules:
# 	flopenr
# End time: 16:44:03 on Jun 15,2025, Elapsed time: 0:00:00
# Errors: 0, Warnings: 0
# vlog -sv -work work +incdir+C:/Users/Ayudapls/Documents/GitHub/proyecto-final-tallerDD {C:/Users/Ayudapls/Documents/GitHub/proyecto-final-tallerDD/mux2.sv}
# Model Technology ModelSim - Intel FPGA Edition vlog 10.5b Compiler 2016.10 Oct  5 2016
# Start time: 16:44:03 on Jun 15,2025
# vlog -reportprogress 300 -sv -work work "+incdir+C:/Users/Ayudapls/Documents/GitHub/proyecto-final-tallerDD" C:/Users/Ayudapls/Documents/GitHub/proyecto-final-tallerDD/mux2.sv 
# -- Compiling module mux2
# 
# Top level modules:
# 	mux2
# End time: 16:44:04 on Jun 15,2025, Elapsed time: 0:00:01
# Errors: 0, Warnings: 0
# vlog -sv -work work +incdir+C:/Users/Ayudapls/Documents/GitHub/proyecto-final-tallerDD {C:/Users/Ayudapls/Documents/GitHub/proyecto-final-tallerDD/alu.sv}
# Model Technology ModelSim - Intel FPGA Edition vlog 10.5b Compiler 2016.10 Oct  5 2016
# Start time: 16:44:04 on Jun 15,2025
# vlog -reportprogress 300 -sv -work work "+incdir+C:/Users/Ayudapls/Documents/GitHub/proyecto-final-tallerDD" C:/Users/Ayudapls/Documents/GitHub/proyecto-final-tallerDD/alu.sv 
# -- Compiling module alu
# 
# Top level modules:
# 	alu
# End time: 16:44:04 on Jun 15,2025, Elapsed time: 0:00:00
# Errors: 0, Warnings: 0
# vlog -sv -work work +incdir+C:/Users/Ayudapls/Documents/GitHub/proyecto-final-tallerDD {C:/Users/Ayudapls/Documents/GitHub/proyecto-final-tallerDD/condcheck.sv}
# Model Technology ModelSim - Intel FPGA Edition vlog 10.5b Compiler 2016.10 Oct  5 2016
# Start time: 16:44:04 on Jun 15,2025
# vlog -reportprogress 300 -sv -work work "+incdir+C:/Users/Ayudapls/Documents/GitHub/proyecto-final-tallerDD" C:/Users/Ayudapls/Documents/GitHub/proyecto-final-tallerDD/condcheck.sv 
# -- Compiling module condcheck
# 
# Top level modules:
# 	condcheck
# End time: 16:44:04 on Jun 15,2025, Elapsed time: 0:00:00
# Errors: 0, Warnings: 0
# vlog -sv -work work +incdir+C:/Users/Ayudapls/Documents/GitHub/proyecto-final-tallerDD {C:/Users/Ayudapls/Documents/GitHub/proyecto-final-tallerDD/full_subtractor_nb.sv}
# Model Technology ModelSim - Intel FPGA Edition vlog 10.5b Compiler 2016.10 Oct  5 2016
# Start time: 16:44:04 on Jun 15,2025
# vlog -reportprogress 300 -sv -work work "+incdir+C:/Users/Ayudapls/Documents/GitHub/proyecto-final-tallerDD" C:/Users/Ayudapls/Documents/GitHub/proyecto-final-tallerDD/full_subtractor_nb.sv 
# -- Compiling module full_subtractor_nb
# 
# Top level modules:
# 	full_subtractor_nb
# End time: 16:44:04 on Jun 15,2025, Elapsed time: 0:00:00
# Errors: 0, Warnings: 0
# vlog -sv -work work +incdir+C:/Users/Ayudapls/Documents/GitHub/proyecto-final-tallerDD {C:/Users/Ayudapls/Documents/GitHub/proyecto-final-tallerDD/full_adder_nb.sv}
# Model Technology ModelSim - Intel FPGA Edition vlog 10.5b Compiler 2016.10 Oct  5 2016
# Start time: 16:44:04 on Jun 15,2025
# vlog -reportprogress 300 -sv -work work "+incdir+C:/Users/Ayudapls/Documents/GitHub/proyecto-final-tallerDD" C:/Users/Ayudapls/Documents/GitHub/proyecto-final-tallerDD/full_adder_nb.sv 
# -- Compiling module full_adder_nb
# 
# Top level modules:
# 	full_adder_nb
# End time: 16:44:04 on Jun 15,2025, Elapsed time: 0:00:00
# Errors: 0, Warnings: 0
# vlog -sv -work work +incdir+C:/Users/Ayudapls/Documents/GitHub/proyecto-final-tallerDD {C:/Users/Ayudapls/Documents/GitHub/proyecto-final-tallerDD/full_subtractor_1b.sv}
# Model Technology ModelSim - Intel FPGA Edition vlog 10.5b Compiler 2016.10 Oct  5 2016
# Start time: 16:44:04 on Jun 15,2025
# vlog -reportprogress 300 -sv -work work "+incdir+C:/Users/Ayudapls/Documents/GitHub/proyecto-final-tallerDD" C:/Users/Ayudapls/Documents/GitHub/proyecto-final-tallerDD/full_subtractor_1b.sv 
# -- Compiling module full_subtractor_1b
# 
# Top level modules:
# 	full_subtractor_1b
# End time: 16:44:04 on Jun 15,2025, Elapsed time: 0:00:00
# Errors: 0, Warnings: 0
# vlog -sv -work work +incdir+C:/Users/Ayudapls/Documents/GitHub/proyecto-final-tallerDD {C:/Users/Ayudapls/Documents/GitHub/proyecto-final-tallerDD/full_adder_1b.sv}
# Model Technology ModelSim - Intel FPGA Edition vlog 10.5b Compiler 2016.10 Oct  5 2016
# Start time: 16:44:04 on Jun 15,2025
# vlog -reportprogress 300 -sv -work work "+incdir+C:/Users/Ayudapls/Documents/GitHub/proyecto-final-tallerDD" C:/Users/Ayudapls/Documents/GitHub/proyecto-final-tallerDD/full_adder_1b.sv 
# -- Compiling module full_adder_1b
# 
# Top level modules:
# 	full_adder_1b
# End time: 16:44:04 on Jun 15,2025, Elapsed time: 0:00:00
# Errors: 0, Warnings: 0
# vlog -sv -work work +incdir+C:/Users/Ayudapls/Documents/GitHub/proyecto-final-tallerDD {C:/Users/Ayudapls/Documents/GitHub/proyecto-final-tallerDD/multiplier_nb.sv}
# Model Technology ModelSim - Intel FPGA Edition vlog 10.5b Compiler 2016.10 Oct  5 2016
# Start time: 16:44:04 on Jun 15,2025
# vlog -reportprogress 300 -sv -work work "+incdir+C:/Users/Ayudapls/Documents/GitHub/proyecto-final-tallerDD" C:/Users/Ayudapls/Documents/GitHub/proyecto-final-tallerDD/multiplier_nb.sv 
# -- Compiling module multiplier_nb
# 
# Top level modules:
# 	multiplier_nb
# End time: 16:44:04 on Jun 15,2025, Elapsed time: 0:00:00
# Errors: 0, Warnings: 0
# 
# vlog -sv -work work +incdir+C:/Users/Ayudapls/Documents/GitHub/proyecto-final-tallerDD {C:/Users/Ayudapls/Documents/GitHub/proyecto-final-tallerDD/arm_tb.sv}
# Model Technology ModelSim - Intel FPGA Edition vlog 10.5b Compiler 2016.10 Oct  5 2016
# Start time: 16:44:04 on Jun 15,2025
# vlog -reportprogress 300 -sv -work work "+incdir+C:/Users/Ayudapls/Documents/GitHub/proyecto-final-tallerDD" C:/Users/Ayudapls/Documents/GitHub/proyecto-final-tallerDD/arm_tb.sv 
# -- Compiling module arm_tb
# 
# Top level modules:
# 	arm_tb
# End time: 16:44:04 on Jun 15,2025, Elapsed time: 0:00:00
# Errors: 0, Warnings: 0
# 
# vsim -t 1ps -L altera_ver -L lpm_ver -L sgate_ver -L altera_mf_ver -L altera_lnsim_ver -L cyclonev_ver -L cyclonev_hssi_ver -L cyclonev_pcie_hip_ver -L rtl_work -L work -voptargs="+acc"  arm_tb
# vsim -t 1ps -L altera_ver -L lpm_ver -L sgate_ver -L altera_mf_ver -L altera_lnsim_ver -L cyclonev_ver -L cyclonev_hssi_ver -L cyclonev_pcie_hip_ver -L rtl_work -L work -voptargs=""+acc"" arm_tb 
# Start time: 16:44:04 on Jun 15,2025
# Loading sv_std.std
# Loading work.arm_tb
# Loading work.arm
# Loading work.controller
# Loading work.decoder
# Loading work.condlogic
# Loading work.flopenr
# Loading work.condcheck
# Loading work.datapath
# Loading work.adder
# Loading work.mux2
# Loading work.flopr
# Loading work.regfile
# Loading work.extend
# Loading work.alu
# Loading work.full_adder_nb
# Loading work.full_subtractor_nb
# Loading work.multiplier_nb
# Loading work.rom
# Loading altera_mf_ver.altsyncram
# Loading work.ram
# Loading work.full_adder_1b
# Loading work.full_subtractor_1b
# Loading altera_mf_ver.altsyncram_body
# Loading altera_mf_ver.ALTERA_DEVICE_FAMILIES
# Loading altera_mf_ver.ALTERA_MF_MEMORY_INITIALIZATION
# 
# add wave *
# view structure
# .main_pane.structure.interior.cs.body.struct
# view signals
# .main_pane.objects.interior.cs.body.tree
# run -all
# Tiempo=0 PC=xxxxxxxx Instr=00000000 Cond=0000 Rn=0 Rd=0 Imm/Rm=000 ReadData=00000000 | Decodificador Entrada: Op=00 Funct=000000 Rd=0 | Decodificador Salida: RegW=1 MemW=0 MemtoReg=0 ALUSrc=0 ImmSrc=00 RegSrc=00 ALUControl=10 FlagW=00 PCS=0 | Controlador Salida: RegWrite=x MemWrite=0 PCSrc=0 CondEx=x | ALUResult=xxxxxxxx ALUFlags=xx00 WriteData=xxxxxxxx | R0=xxxxxxxx R1=xxxxxxxx R2=xxxxxxxx R3=xxxxxxxx R4=xxxxxxxx R5=xxxxxxxx R6=xxxxxxxx R7=xxxxxxxx | R8=xxxxxxxx R9=xxxxxxxx R10=xxxxxxxx R11=xxxxxxxx R12=xxxxxxxx R13=xxxxxxxx R14=xxxxxxxx R15=xxxxxxxx | RAM_q_b=00 (ext_addr 00000000)
# 
# --- Prueba 1: Reinicio del Sistema ---
# Tiempo=10000 PC=00000000 Instr=00000000 Cond=0000 Rn=0 Rd=0 Imm/Rm=000 ReadData=00000000 | Decodificador Entrada: Op=00 Funct=000000 Rd=0 | Decodificador Salida: RegW=1 MemW=0 MemtoReg=0 ALUSrc=0 ImmSrc=00 RegSrc=00 ALUControl=10 FlagW=00 PCS=0 | Controlador Salida: RegWrite=0 MemWrite=0 PCSrc=0 CondEx=0 | ALUResult=00000000 ALUFlags=0100 WriteData=00000000 | R0=00000000 R1=00000000 R2=00000000 R3=00000000 R4=00000000 R5=00000000 R6=00000000 R7=00000000 | R8=00000000 R9=00000000 R10=00000000 R11=00000000 R12=00000000 R13=00000000 R14=00000000 R15=00000000 | RAM_q_b=00 (ext_addr 00000000)
# Tiempo=15000 PC=00000000 Instr=xxxxxxxx Cond=xxxx Rn=x Rd=x Imm/Rm=xxx ReadData=000000xx | Decodificador Entrada: Op=xx Funct=xxxxxx Rd=x | Decodificador Salida: RegW=1 MemW=0 MemtoReg=0 ALUSrc=0 ImmSrc=00 RegSrc=00 ALUControl=00 FlagW=xx PCS=x | Controlador Salida: RegWrite=0 MemWrite=0 PCSrc=0 CondEx=0 | ALUResult=xxxxxxxx ALUFlags=xxxx WriteData=xxxxxxxx | R0=00000000 R1=00000000 R2=00000000 R3=00000000 R4=00000000 R5=00000000 R6=00000000 R7=00000000 | R8=00000000 R9=00000000 R10=00000000 R11=00000000 R12=00000000 R13=00000000 R14=00000000 R15=00000000 | RAM_q_b=00 (ext_addr 00000000)
# Tiempo=25000 PC=00000004 Instr=010aa0e3 Cond=0000 Rn=a Rd=a Imm/Rm=0e3 ReadData=00000000 | Decodificador Entrada: Op=00 Funct=010000 Rd=a | Decodificador Salida: RegW=1 MemW=0 MemtoReg=0 ALUSrc=0 ImmSrc=00 RegSrc=00 ALUControl=00 FlagW=00 PCS=0 | Controlador Salida: RegWrite=0 MemWrite=0 PCSrc=0 CondEx=0 | ALUResult=00000000 ALUFlags=0100 WriteData=00000000 | R0=00000000 R1=00000000 R2=00000000 R3=00000000 R4=00000000 R5=00000000 R6=00000000 R7=00000000 | R8=00000000 R9=00000000 R10=00000000 R11=00000000 R12=00000000 R13=00000000 R14=00000000 R15=00000000 | RAM_q_b=00 (ext_addr 00000000)
# 
# --- Prueba 2: Ejecutar Programa de Ejemplo (100 ciclos) ---
# Tiempo=35000 PC=00000008 Instr=010aa0e3 Cond=0000 Rn=a Rd=a Imm/Rm=0e3 ReadData=000000xx | Decodificador Entrada: Op=00 Funct=010000 Rd=a | Decodificador Salida: RegW=1 MemW=0 MemtoReg=0 ALUSrc=0 ImmSrc=00 RegSrc=00 ALUControl=00 FlagW=00 PCS=0 | Controlador Salida: RegWrite=0 MemWrite=0 PCSrc=0 CondEx=0 | ALUResult=00000000 ALUFlags=0100 WriteData=00000000 | R0=00000000 R1=00000000 R2=00000000 R3=00000000 R4=00000000 R5=00000000 R6=00000000 R7=00000000 | R8=00000000 R9=00000000 R10=00000000 R11=00000000 R12=00000000 R13=00000000 R14=00000000 R15=00000000 | RAM_q_b=00 (ext_addr 00000000)
# Tiempo=45000 PC=0000000c Instr=4f1fa0e3 Cond=0100 Rn=f Rd=a Imm/Rm=0e3 ReadData=00000000 | Decodificador Entrada: Op=11 Funct=110001 Rd=a | Decodificador Salida: RegW=0 MemW=0 MemtoReg=0 ALUSrc=0 ImmSrc=00 RegSrc=00 ALUControl=00 FlagW=00 PCS=0 | Controlador Salida: RegWrite=0 MemWrite=0 PCSrc=0 CondEx=0 | ALUResult=00000014 ALUFlags=0000 WriteData=00000000 | R0=00000000 R1=00000000 R2=00000000 R3=00000000 R4=00000000 R5=00000000 R6=00000000 R7=00000000 | R8=00000000 R9=00000000 R10=00000000 R11=00000000 R12=00000000 R13=00000000 R14=00000000 R15=00000000 | RAM_q_b=00 (ext_addr 00000000)
# Tiempo=55000 PC=00000010 Instr=001080e5 Cond=0000 Rn=0 Rd=8 Imm/Rm=0e5 ReadData=00000000 | Decodificador Entrada: Op=00 Funct=000001 Rd=8 | Decodificador Salida: RegW=1 MemW=0 MemtoReg=0 ALUSrc=0 ImmSrc=00 RegSrc=00 ALUControl=10 FlagW=00 PCS=0 | Controlador Salida: RegWrite=0 MemWrite=0 PCSrc=0 CondEx=0 | ALUResult=00000000 ALUFlags=0100 WriteData=00000000 | R0=00000000 R1=00000000 R2=00000000 R3=00000000 R4=00000000 R5=00000000 R6=00000000 R7=00000000 | R8=00000000 R9=00000000 R10=00000000 R11=00000000 R12=00000000 R13=00000000 R14=00000000 R15=00000000 | RAM_q_b=00 (ext_addr 00000000)
# Tiempo=65000 PC=00000014 Instr=54029fe5 Cond=0101 Rn=2 Rd=9 Imm/Rm=fe5 ReadData=00000000 | Decodificador Entrada: Op=01 Funct=000000 Rd=9 | Decodificador Salida: RegW=0 MemW=1 MemtoReg=0 ALUSrc=1 ImmSrc=01 RegSrc=10 ALUControl=00 FlagW=00 PCS=0 | Controlador Salida: RegWrite=0 MemWrite=1 PCSrc=0 CondEx=1 | ALUResult=00000fe5 ALUFlags=0000 WriteData=00000000 | R0=00000000 R1=00000000 R2=00000000 R3=00000000 R4=00000000 R5=00000000 R6=00000000 R7=00000000 | R8=00000000 R9=00000000 R10=00000000 R11=00000000 R12=00000000 R13=00000000 R14=00000000 R15=00000000 | RAM_q_b=00 (ext_addr 00000000)
# Tiempo=75000 PC=00000018 Instr=0010a0e3 Cond=0000 Rn=0 Rd=a Imm/Rm=0e3 ReadData=00000000 | Decodificador Entrada: Op=00 Funct=000001 Rd=a | Decodificador Salida: RegW=1 MemW=0 MemtoReg=0 ALUSrc=0 ImmSrc=00 RegSrc=00 ALUControl=10 FlagW=00 PCS=0 | Controlador Salida: RegWrite=0 MemWrite=0 PCSrc=0 CondEx=0 | ALUResult=00000000 ALUFlags=0100 WriteData=00000000 | R0=00000000 R1=00000000 R2=00000000 R3=00000000 R4=00000000 R5=00000000 R6=00000000 R7=00000000 | R8=00000000 R9=00000000 R10=00000000 R11=00000000 R12=00000000 R13=00000000 R14=00000000 R15=00000000 | RAM_q_b=00 (ext_addr 00000000)
# Tiempo=85000 PC=0000001c Instr=001080e5 Cond=0000 Rn=0 Rd=8 Imm/Rm=0e5 ReadData=00000000 | Decodificador Entrada: Op=00 Funct=000001 Rd=8 | Decodificador Salida: RegW=1 MemW=0 MemtoReg=0 ALUSrc=0 ImmSrc=00 RegSrc=00 ALUControl=10 FlagW=00 PCS=0 | Controlador Salida: RegWrite=0 MemWrite=0 PCSrc=0 CondEx=0 | ALUResult=00000000 ALUFlags=0100 WriteData=00000000 | R0=00000000 R1=00000000 R2=00000000 R3=00000000 R4=00000000 R5=00000000 R6=00000000 R7=00000000 | R8=00000000 R9=00000000 R10=00000000 R11=00000000 R12=00000000 R13=00000000 R14=00000000 R15=00000000 | RAM_q_b=00 (ext_addr 00000000)
# Tiempo=95000 PC=00000020 Instr=041080e4 Cond=0000 Rn=0 Rd=8 Imm/Rm=0e4 ReadData=00000000 | Decodificador Entrada: Op=01 Funct=000001 Rd=8 | Decodificador Salida: RegW=1 MemW=0 MemtoReg=1 ALUSrc=1 ImmSrc=01 RegSrc=00 ALUControl=00 FlagW=00 PCS=0 | Controlador Salida: RegWrite=0 MemWrite=0 PCSrc=0 CondEx=0 | ALUResult=000000e4 ALUFlags=0000 WriteData=00000000 | R0=00000000 R1=00000000 R2=00000000 R3=00000000 R4=00000000 R5=00000000 R6=00000000 R7=00000000 | R8=00000000 R9=00000000 R10=00000000 R11=00000000 R12=00000000 R13=00000000 R14=00000000 R15=00000000 | RAM_q_b=00 (ext_addr 00000000)
# Tiempo=105000 PC=00000024 Instr=001090e5 Cond=0000 Rn=0 Rd=9 Imm/Rm=0e5 ReadData=00000000 | Decodificador Entrada: Op=00 Funct=000001 Rd=9 | Decodificador Salida: RegW=1 MemW=0 MemtoReg=0 ALUSrc=0 ImmSrc=00 RegSrc=00 ALUControl=10 FlagW=00 PCS=0 | Controlador Salida: RegWrite=0 MemWrite=0 PCSrc=0 CondEx=0 | ALUResult=00000000 ALUFlags=0100 WriteData=00000000 | R0=00000000 R1=00000000 R2=00000000 R3=00000000 R4=00000000 R5=00000000 R6=00000000 R7=00000000 | R8=00000000 R9=00000000 R10=00000000 R11=00000000 R12=00000000 R13=00000000 R14=00000000 R15=00000000 | RAM_q_b=00 (ext_addr 00000000)
# Tiempo=115000 PC=00000028 Instr=0300000a Cond=0000 Rn=0 Rd=0 Imm/Rm=00a ReadData=00000000 | Decodificador Entrada: Op=00 Funct=110000 Rd=0 | Decodificador Salida: RegW=1 MemW=0 MemtoReg=0 ALUSrc=1 ImmSrc=00 RegSrc=00 ALUControl=00 FlagW=11 PCS=0 | Controlador Salida: RegWrite=0 MemWrite=0 PCSrc=0 CondEx=0 | ALUResult=0000000a ALUFlags=0000 WriteData=00000000 | R0=00000000 R1=00000000 R2=00000000 R3=00000000 R4=00000000 R5=00000000 R6=00000000 R7=00000000 | R8=00000000 R9=00000000 R10=00000000 R11=00000000 R12=00000000 R13=00000000 R14=00000000 R15=00000000 | RAM_q_b=00 (ext_addr 00000000)
# Tiempo=125000 PC=0000002c Instr=003082e5 Cond=0000 Rn=0 Rd=8 Imm/Rm=2e5 ReadData=00000000 | Decodificador Entrada: Op=00 Funct=000011 Rd=8 | Decodificador Salida: RegW=1 MemW=0 MemtoReg=0 ALUSrc=0 ImmSrc=00 RegSrc=00 ALUControl=00 FlagW=00 PCS=0 | Controlador Salida: RegWrite=0 MemWrite=0 PCSrc=0 CondEx=0 | ALUResult=00000000 ALUFlags=0100 WriteData=00000000 | R0=00000000 R1=00000000 R2=00000000 R3=00000000 R4=00000000 R5=00000000 R6=00000000 R7=00000000 | R8=00000000 R9=00000000 R10=00000000 R11=00000000 R12=00000000 R13=00000000 R14=00000000 R15=00000000 | RAM_q_b=00 (ext_addr 00000000)
# Tiempo=135000 PC=00000030 Instr=0a4da0e3 Cond=0000 Rn=d Rd=a Imm/Rm=0e3 ReadData=00000000 | Decodificador Entrada: Op=10 Funct=100100 Rd=a | Decodificador Salida: RegW=0 MemW=0 MemtoReg=0 ALUSrc=1 ImmSrc=10 RegSrc=01 ALUControl=00 FlagW=00 PCS=1 | Controlador Salida: RegWrite=0 MemWrite=0 PCSrc=0 CondEx=0 | ALUResult=013683c4 ALUFlags=0000 WriteData=00000000 | R0=00000000 R1=00000000 R2=00000000 R3=00000000 R4=00000000 R5=00000000 R6=00000000 R7=00000000 | R8=00000000 R9=00000000 R10=00000000 R11=00000000 R12=00000000 R13=00000000 R14=00000000 R15=00000000 | RAM_q_b=00 (ext_addr 00000000)
# Tiempo=145000 PC=00000034 Instr=003082e5 Cond=0000 Rn=0 Rd=8 Imm/Rm=2e5 ReadData=00000000 | Decodificador Entrada: Op=00 Funct=000011 Rd=8 | Decodificador Salida: RegW=1 MemW=0 MemtoReg=0 ALUSrc=0 ImmSrc=00 RegSrc=00 ALUControl=00 FlagW=00 PCS=0 | Controlador Salida: RegWrite=0 MemWrite=0 PCSrc=0 CondEx=0 | ALUResult=00000000 ALUFlags=0100 WriteData=00000000 | R0=00000000 R1=00000000 R2=00000000 R3=00000000 R4=00000000 R5=00000000 R6=00000000 R7=00000000 | R8=00000000 R9=00000000 R10=00000000 R11=00000000 R12=00000000 R13=00000000 R14=00000000 R15=00000000 | RAM_q_b=00 (ext_addr 00000000)
